EESchema Schematic File Version 4
EELAYER 30 0
EELAYER END
$Descr A4 11693 8268
encoding utf-8
Sheet 7 10
Title ""
Date ""
Rev ""
Comp ""
Comment1 ""
Comment2 ""
Comment3 ""
Comment4 ""
$EndDescr
$Comp
L Device:LED D?
U 1 1 5E65E203
P 3550 2450
AR Path="/5D919717/5E98B949/5E65E203" Ref="D?"  Part="1" 
AR Path="/5D8233E8/5E54907D/5E65E203" Ref="D2"  Part="1" 
AR Path="/5D8DA265/5E98CEBB/5E65E203" Ref="D?"  Part="1" 
F 0 "D?" V 3497 2530 50  0000 L CNN
F 1 "LED" V 3588 2530 50  0000 L CNN
F 2 "Parts:LED_0402_1005Metric" H 3550 2450 50  0001 C CNN
F 3 "" H 3550 2450 50  0001 C CNN
	1    3550 2450
	0    1    1    0   
$EndComp
$Comp
L Device:LED D?
U 1 1 5E65F596
P 3250 2450
AR Path="/5D919717/5E98B949/5E65F596" Ref="D?"  Part="1" 
AR Path="/5D8233E8/5E54907D/5E65F596" Ref="D1"  Part="1" 
AR Path="/5D8DA265/5E98CEBB/5E65F596" Ref="D?"  Part="1" 
F 0 "D?" V 3197 2530 50  0000 L CNN
F 1 "LED" V 3288 2530 50  0000 L CNN
F 2 "Parts:LED_0402_1005Metric" H 3250 2450 50  0001 C CNN
F 3 "" H 3250 2450 50  0001 C CNN
	1    3250 2450
	0    1    1    0   
$EndComp
Wire Wire Line
	3250 2300 3400 2300
Wire Wire Line
	3250 2600 3400 2600
Wire Wire Line
	3400 3000 3400 2600
Connection ~ 3400 2600
Wire Wire Line
	3400 2600 3550 2600
Wire Wire Line
	3400 2300 3400 2000
Connection ~ 3400 2300
Wire Wire Line
	3400 2300 3550 2300
$Comp
L Device:LED D?
U 1 1 5E6633F8
P 4150 2450
AR Path="/5D919717/5E98B949/5E6633F8" Ref="D?"  Part="1" 
AR Path="/5D8233E8/5E54907D/5E6633F8" Ref="D4"  Part="1" 
AR Path="/5D8DA265/5E98CEBB/5E6633F8" Ref="D?"  Part="1" 
F 0 "D?" V 4097 2530 50  0000 L CNN
F 1 "LED" V 4188 2530 50  0000 L CNN
F 2 "Parts:LED_0402_1005Metric" H 4150 2450 50  0001 C CNN
F 3 "" H 4150 2450 50  0001 C CNN
	1    4150 2450
	0    1    1    0   
$EndComp
$Comp
L Device:LED D?
U 1 1 5E6633FE
P 3850 2450
AR Path="/5D919717/5E98B949/5E6633FE" Ref="D?"  Part="1" 
AR Path="/5D8233E8/5E54907D/5E6633FE" Ref="D3"  Part="1" 
AR Path="/5D8DA265/5E98CEBB/5E6633FE" Ref="D?"  Part="1" 
F 0 "D?" V 3797 2530 50  0000 L CNN
F 1 "LED" V 3888 2530 50  0000 L CNN
F 2 "Parts:LED_0402_1005Metric" H 3850 2450 50  0001 C CNN
F 3 "" H 3850 2450 50  0001 C CNN
	1    3850 2450
	0    1    1    0   
$EndComp
Wire Wire Line
	3850 2300 4000 2300
Wire Wire Line
	3850 2600 4000 2600
Wire Wire Line
	4000 3000 4000 2600
Connection ~ 4000 2600
Wire Wire Line
	4000 2600 4150 2600
Wire Wire Line
	4000 2300 4000 2000
Connection ~ 4000 2300
Wire Wire Line
	4000 2300 4150 2300
$Comp
L Device:LED D?
U 1 1 5E6638C7
P 4750 2450
AR Path="/5D919717/5E98B949/5E6638C7" Ref="D?"  Part="1" 
AR Path="/5D8233E8/5E54907D/5E6638C7" Ref="D6"  Part="1" 
AR Path="/5D8DA265/5E98CEBB/5E6638C7" Ref="D?"  Part="1" 
F 0 "D?" V 4697 2530 50  0000 L CNN
F 1 "LED" V 4788 2530 50  0000 L CNN
F 2 "Parts:LED_0402_1005Metric" H 4750 2450 50  0001 C CNN
F 3 "" H 4750 2450 50  0001 C CNN
	1    4750 2450
	0    1    1    0   
$EndComp
$Comp
L Device:LED D?
U 1 1 5E6638CD
P 4450 2450
AR Path="/5D919717/5E98B949/5E6638CD" Ref="D?"  Part="1" 
AR Path="/5D8233E8/5E54907D/5E6638CD" Ref="D5"  Part="1" 
AR Path="/5D8DA265/5E98CEBB/5E6638CD" Ref="D?"  Part="1" 
F 0 "D?" V 4397 2530 50  0000 L CNN
F 1 "LED" V 4488 2530 50  0000 L CNN
F 2 "Parts:LED_0402_1005Metric" H 4450 2450 50  0001 C CNN
F 3 "" H 4450 2450 50  0001 C CNN
	1    4450 2450
	0    1    1    0   
$EndComp
Wire Wire Line
	4450 2300 4600 2300
Wire Wire Line
	4450 2600 4600 2600
Wire Wire Line
	4600 3000 4600 2600
Connection ~ 4600 2600
Wire Wire Line
	4600 2600 4750 2600
Wire Wire Line
	4600 2300 4600 2000
Connection ~ 4600 2300
Wire Wire Line
	4600 2300 4750 2300
$Comp
L Device:LED D?
U 1 1 5E66427D
P 5400 2450
AR Path="/5D919717/5E98B949/5E66427D" Ref="D?"  Part="1" 
AR Path="/5D8233E8/5E54907D/5E66427D" Ref="D8"  Part="1" 
AR Path="/5D8DA265/5E98CEBB/5E66427D" Ref="D?"  Part="1" 
F 0 "D?" V 5347 2530 50  0000 L CNN
F 1 "LED" V 5438 2530 50  0000 L CNN
F 2 "Parts:LED_0402_1005Metric" H 5400 2450 50  0001 C CNN
F 3 "" H 5400 2450 50  0001 C CNN
	1    5400 2450
	0    1    1    0   
$EndComp
$Comp
L Device:LED D?
U 1 1 5E664283
P 5100 2450
AR Path="/5D919717/5E98B949/5E664283" Ref="D?"  Part="1" 
AR Path="/5D8233E8/5E54907D/5E664283" Ref="D7"  Part="1" 
AR Path="/5D8DA265/5E98CEBB/5E664283" Ref="D?"  Part="1" 
F 0 "D?" V 5047 2530 50  0000 L CNN
F 1 "LED" V 5138 2530 50  0000 L CNN
F 2 "Parts:LED_0402_1005Metric" H 5100 2450 50  0001 C CNN
F 3 "" H 5100 2450 50  0001 C CNN
	1    5100 2450
	0    1    1    0   
$EndComp
Wire Wire Line
	5100 2300 5250 2300
Wire Wire Line
	5100 2600 5250 2600
Wire Wire Line
	5250 3000 5250 2600
Connection ~ 5250 2600
Wire Wire Line
	5250 2600 5400 2600
Wire Wire Line
	5250 2300 5250 2000
Connection ~ 5250 2300
Wire Wire Line
	5250 2300 5400 2300
$Comp
L Device:LED D?
U 1 1 5E664AF4
P 6100 2450
AR Path="/5D919717/5E98B949/5E664AF4" Ref="D?"  Part="1" 
AR Path="/5D8233E8/5E54907D/5E664AF4" Ref="D10"  Part="1" 
AR Path="/5D8DA265/5E98CEBB/5E664AF4" Ref="D?"  Part="1" 
F 0 "D?" V 6047 2530 50  0000 L CNN
F 1 "LED" V 6138 2530 50  0000 L CNN
F 2 "Parts:LED_0402_1005Metric" H 6100 2450 50  0001 C CNN
F 3 "" H 6100 2450 50  0001 C CNN
	1    6100 2450
	0    1    1    0   
$EndComp
$Comp
L Device:LED D?
U 1 1 5E664AFA
P 5800 2450
AR Path="/5D919717/5E98B949/5E664AFA" Ref="D?"  Part="1" 
AR Path="/5D8233E8/5E54907D/5E664AFA" Ref="D9"  Part="1" 
AR Path="/5D8DA265/5E98CEBB/5E664AFA" Ref="D?"  Part="1" 
F 0 "D?" V 5747 2530 50  0000 L CNN
F 1 "LED" V 5838 2530 50  0000 L CNN
F 2 "Parts:LED_0402_1005Metric" H 5800 2450 50  0001 C CNN
F 3 "" H 5800 2450 50  0001 C CNN
	1    5800 2450
	0    1    1    0   
$EndComp
Wire Wire Line
	5800 2300 5950 2300
Wire Wire Line
	5800 2600 5950 2600
Wire Wire Line
	5950 3000 5950 2600
Connection ~ 5950 2600
Wire Wire Line
	5950 2600 6100 2600
Wire Wire Line
	5950 2300 5950 2000
Connection ~ 5950 2300
Wire Wire Line
	5950 2300 6100 2300
$Comp
L Device:LED D?
U 1 1 5E665496
P 6750 2450
AR Path="/5D919717/5E98B949/5E665496" Ref="D?"  Part="1" 
AR Path="/5D8233E8/5E54907D/5E665496" Ref="D12"  Part="1" 
AR Path="/5D8DA265/5E98CEBB/5E665496" Ref="D?"  Part="1" 
F 0 "D?" V 6697 2530 50  0000 L CNN
F 1 "LED" V 6788 2530 50  0000 L CNN
F 2 "Parts:LED_0402_1005Metric" H 6750 2450 50  0001 C CNN
F 3 "" H 6750 2450 50  0001 C CNN
	1    6750 2450
	0    1    1    0   
$EndComp
$Comp
L Device:LED D?
U 1 1 5E66549C
P 6450 2450
AR Path="/5D919717/5E98B949/5E66549C" Ref="D?"  Part="1" 
AR Path="/5D8233E8/5E54907D/5E66549C" Ref="D11"  Part="1" 
AR Path="/5D8DA265/5E98CEBB/5E66549C" Ref="D?"  Part="1" 
F 0 "D?" V 6397 2530 50  0000 L CNN
F 1 "LED" V 6488 2530 50  0000 L CNN
F 2 "Parts:LED_0402_1005Metric" H 6450 2450 50  0001 C CNN
F 3 "" H 6450 2450 50  0001 C CNN
	1    6450 2450
	0    1    1    0   
$EndComp
Wire Wire Line
	6450 2300 6600 2300
Wire Wire Line
	6450 2600 6600 2600
Wire Wire Line
	6600 3000 6600 2600
Connection ~ 6600 2600
Wire Wire Line
	6600 2600 6750 2600
Wire Wire Line
	6600 2300 6600 2000
Connection ~ 6600 2300
Wire Wire Line
	6600 2300 6750 2300
$Comp
L Device:LED D?
U 1 1 5E666141
P 7350 2450
AR Path="/5D919717/5E98B949/5E666141" Ref="D?"  Part="1" 
AR Path="/5D8233E8/5E54907D/5E666141" Ref="D14"  Part="1" 
AR Path="/5D8DA265/5E98CEBB/5E666141" Ref="D?"  Part="1" 
F 0 "D?" V 7297 2530 50  0000 L CNN
F 1 "LED" V 7388 2530 50  0000 L CNN
F 2 "Parts:LED_0402_1005Metric" H 7350 2450 50  0001 C CNN
F 3 "" H 7350 2450 50  0001 C CNN
	1    7350 2450
	0    1    1    0   
$EndComp
$Comp
L Device:LED D?
U 1 1 5E666147
P 7050 2450
AR Path="/5D919717/5E98B949/5E666147" Ref="D?"  Part="1" 
AR Path="/5D8233E8/5E54907D/5E666147" Ref="D13"  Part="1" 
AR Path="/5D8DA265/5E98CEBB/5E666147" Ref="D?"  Part="1" 
F 0 "D?" V 6997 2530 50  0000 L CNN
F 1 "LED" V 7088 2530 50  0000 L CNN
F 2 "Parts:LED_0402_1005Metric" H 7050 2450 50  0001 C CNN
F 3 "" H 7050 2450 50  0001 C CNN
	1    7050 2450
	0    1    1    0   
$EndComp
Wire Wire Line
	7050 2300 7200 2300
Wire Wire Line
	7050 2600 7200 2600
Wire Wire Line
	7200 3000 7200 2600
Connection ~ 7200 2600
Wire Wire Line
	7200 2600 7350 2600
Wire Wire Line
	7200 2300 7200 2000
Connection ~ 7200 2300
Wire Wire Line
	7200 2300 7350 2300
Wire Wire Line
	3400 3000 4000 3000
Wire Wire Line
	4600 3000 4000 3000
Connection ~ 4000 3000
Wire Wire Line
	4600 3000 5250 3000
Connection ~ 4600 3000
Wire Wire Line
	5250 3000 5950 3000
Connection ~ 5250 3000
Wire Wire Line
	5950 3000 6600 3000
Connection ~ 5950 3000
Wire Wire Line
	7200 3000 6600 3000
Connection ~ 6600 3000
Text GLabel 3400 3000 0    50   Input ~ 0
side5
Text GLabel 3400 2000 0    50   Input ~ 0
a
Text GLabel 4000 2000 0    50   Input ~ 0
b
Text GLabel 4600 2000 0    50   Input ~ 0
c
Text GLabel 5250 2000 0    50   Input ~ 0
d
Text GLabel 5950 2000 0    50   Input ~ 0
e
Text GLabel 6600 2000 0    50   Input ~ 0
f
Text GLabel 7200 2000 0    50   Input ~ 0
g
$EndSCHEMATC
