(kicad_sch (version 20230121) (generator eeschema)

  (uuid 5cf2db29-f7ab-499a-9907-cdeba64bf0f3)

  (paper "A4")

  (lib_symbols
    (symbol "dice-rescue:GND-Power" (power) (pin_names (offset 0)) (in_bom yes) (on_board yes)
      (property "Reference" "#PWR" (at 0 -6.35 0)
        (effects (font (size 1.27 1.27)) hide)
      )
      (property "Value" "GND-Power" (at 0 -3.81 0)
        (effects (font (size 1.27 1.27)))
      )
      (property "Footprint" "" (at 0 0 0)
        (effects (font (size 1.27 1.27)) hide)
      )
      (property "Datasheet" "" (at 0 0 0)
        (effects (font (size 1.27 1.27)) hide)
      )
      (symbol "GND-Power_0_1"
        (polyline
          (pts
            (xy 0 0)
            (xy 0 -1.27)
            (xy 1.27 -1.27)
            (xy 0 -2.54)
            (xy -1.27 -1.27)
            (xy 0 -1.27)
          )
          (stroke (width 0) (type default))
          (fill (type none))
        )
      )
      (symbol "GND-Power_1_1"
        (pin power_in line (at 0 0 270) (length 0) hide
          (name "GND" (effects (font (size 1.27 1.27))))
          (number "1" (effects (font (size 1.27 1.27))))
        )
      )
    )
    (symbol "dice:+3.0V-power" (power) (pin_names (offset 0)) (in_bom yes) (on_board yes)
      (property "Reference" "#PWR" (at 0 -3.81 0)
        (effects (font (size 1.27 1.27)) hide)
      )
      (property "Value" "+3.0V-power" (at 0 3.556 0)
        (effects (font (size 1.27 1.27)))
      )
      (property "Footprint" "" (at 0 0 0)
        (effects (font (size 1.27 1.27)) hide)
      )
      (property "Datasheet" "" (at 0 0 0)
        (effects (font (size 1.27 1.27)) hide)
      )
      (symbol "+3.0V-power_0_1"
        (polyline
          (pts
            (xy -0.762 1.27)
            (xy 0 2.54)
          )
          (stroke (width 0) (type default))
          (fill (type none))
        )
        (polyline
          (pts
            (xy 0 0)
            (xy 0 2.54)
          )
          (stroke (width 0) (type default))
          (fill (type none))
        )
        (polyline
          (pts
            (xy 0 2.54)
            (xy 0.762 1.27)
          )
          (stroke (width 0) (type default))
          (fill (type none))
        )
      )
      (symbol "+3.0V-power_1_1"
        (pin power_in line (at 0 0 90) (length 0) hide
          (name "+1V8" (effects (font (size 1.27 1.27))))
          (number "1" (effects (font (size 1.27 1.27))))
        )
      )
    )
    (symbol "dice:Conn_01x05_Female-Connector" (pin_names (offset 1.016) hide) (in_bom yes) (on_board yes)
      (property "Reference" "J" (at 0 5.08 0)
        (effects (font (size 1.27 1.27)))
      )
      (property "Value" "Conn_01x05_Female-Connector" (at 2.54 -11.43 0)
        (effects (font (size 1.27 1.27)))
      )
      (property "Footprint" "" (at 0 0 0)
        (effects (font (size 1.27 1.27)) hide)
      )
      (property "Datasheet" "" (at 0 0 0)
        (effects (font (size 1.27 1.27)) hide)
      )
      (property "ki_fp_filters" "Connector*:*_1x??_*" (at 0 0 0)
        (effects (font (size 1.27 1.27)) hide)
      )
      (symbol "Conn_01x05_Female-Connector_1_1"
        (arc (start 0 -7.112) (mid -0.5058 -7.62) (end 0 -8.128)
          (stroke (width 0.1524) (type default))
          (fill (type none))
        )
        (arc (start 0 -4.572) (mid -0.5058 -5.08) (end 0 -5.588)
          (stroke (width 0.1524) (type default))
          (fill (type none))
        )
        (arc (start 0 -2.032) (mid -0.5058 -2.54) (end 0 -3.048)
          (stroke (width 0.1524) (type default))
          (fill (type none))
        )
        (polyline
          (pts
            (xy -1.27 -7.62)
            (xy -0.508 -7.62)
          )
          (stroke (width 0.1524) (type default))
          (fill (type none))
        )
        (polyline
          (pts
            (xy -1.27 -5.08)
            (xy -0.508 -5.08)
          )
          (stroke (width 0.1524) (type default))
          (fill (type none))
        )
        (polyline
          (pts
            (xy -1.27 -2.54)
            (xy -0.508 -2.54)
          )
          (stroke (width 0.1524) (type default))
          (fill (type none))
        )
        (polyline
          (pts
            (xy -1.27 0)
            (xy -0.508 0)
          )
          (stroke (width 0.1524) (type default))
          (fill (type none))
        )
        (polyline
          (pts
            (xy -1.27 2.54)
            (xy -0.508 2.54)
          )
          (stroke (width 0.1524) (type default))
          (fill (type none))
        )
        (arc (start 0 0.508) (mid -0.5058 0) (end 0 -0.508)
          (stroke (width 0.1524) (type default))
          (fill (type none))
        )
        (arc (start 0 3.048) (mid -0.5058 2.54) (end 0 2.032)
          (stroke (width 0.1524) (type default))
          (fill (type none))
        )
        (pin passive line (at -5.08 2.54 0) (length 3.81)
          (name "Pin_1" (effects (font (size 1.27 1.27))))
          (number "1" (effects (font (size 1.27 1.27))))
        )
        (pin passive line (at -5.08 0 0) (length 3.81)
          (name "Pin_2" (effects (font (size 1.27 1.27))))
          (number "2" (effects (font (size 1.27 1.27))))
        )
        (pin passive line (at -5.08 -2.54 0) (length 3.81)
          (name "Pin_3" (effects (font (size 1.27 1.27))))
          (number "3" (effects (font (size 1.27 1.27))))
        )
        (pin passive line (at -5.08 -5.08 0) (length 3.81)
          (name "Pin_4" (effects (font (size 1.27 1.27))))
          (number "4" (effects (font (size 1.27 1.27))))
        )
        (pin passive line (at -5.08 -7.62 0) (length 3.81)
          (name "Pin_5" (effects (font (size 1.27 1.27))))
          (number "5" (effects (font (size 1.27 1.27))))
        )
      )
    )
    (symbol "dice:Conn_01x05_Female-Connector_bend" (pin_names (offset 1.016) hide) (in_bom yes) (on_board yes)
      (property "Reference" "J" (at 0 6.35 0)
        (effects (font (size 1.27 1.27)))
      )
      (property "Value" "Conn_01x05_Female-Connector_bend" (at 2.54 -11.43 0)
        (effects (font (size 1.27 1.27)))
      )
      (property "Footprint" "" (at 0 1.27 0)
        (effects (font (size 1.27 1.27)) hide)
      )
      (property "Datasheet" "" (at 0 1.27 0)
        (effects (font (size 1.27 1.27)) hide)
      )
      (property "ki_fp_filters" "Connector*:*_1x??_*" (at 0 0 0)
        (effects (font (size 1.27 1.27)) hide)
      )
      (symbol "Conn_01x05_Female-Connector_bend_1_1"
        (arc (start 0 -8.382) (mid -0.5058 -8.89) (end 0 -9.398)
          (stroke (width 0.1524) (type default))
          (fill (type none))
        )
        (arc (start 0 -5.842) (mid -0.5058 -6.35) (end 0 -6.858)
          (stroke (width 0.1524) (type default))
          (fill (type none))
        )
        (arc (start 0 -2.032) (mid -0.5058 -2.54) (end 0 -3.048)
          (stroke (width 0.1524) (type default))
          (fill (type none))
        )
        (polyline
          (pts
            (xy -1.27 -8.89)
            (xy -0.508 -8.89)
          )
          (stroke (width 0.1524) (type default))
          (fill (type none))
        )
        (polyline
          (pts
            (xy -1.27 -6.35)
            (xy -0.508 -6.35)
          )
          (stroke (width 0.1524) (type default))
          (fill (type none))
        )
        (polyline
          (pts
            (xy -1.27 -2.54)
            (xy -0.508 -2.54)
          )
          (stroke (width 0.1524) (type default))
          (fill (type none))
        )
        (polyline
          (pts
            (xy -1.27 1.27)
            (xy -0.508 1.27)
          )
          (stroke (width 0.1524) (type default))
          (fill (type none))
        )
        (polyline
          (pts
            (xy -1.27 3.81)
            (xy -0.508 3.81)
          )
          (stroke (width 0.1524) (type default))
          (fill (type none))
        )
        (arc (start 0 1.778) (mid -0.5058 1.27) (end 0 0.762)
          (stroke (width 0.1524) (type default))
          (fill (type none))
        )
        (arc (start 0 4.318) (mid -0.5058 3.81) (end 0 3.302)
          (stroke (width 0.1524) (type default))
          (fill (type none))
        )
        (pin passive line (at -5.08 3.81 0) (length 3.81)
          (name "Pin_1" (effects (font (size 1.27 1.27))))
          (number "1" (effects (font (size 1.27 1.27))))
        )
        (pin passive line (at -5.08 1.27 0) (length 3.81)
          (name "Pin_2" (effects (font (size 1.27 1.27))))
          (number "2" (effects (font (size 1.27 1.27))))
        )
        (pin passive line (at -5.08 -2.54 0) (length 3.81)
          (name "Pin_3" (effects (font (size 1.27 1.27))))
          (number "3" (effects (font (size 1.27 1.27))))
        )
        (pin passive line (at -5.08 -6.35 0) (length 3.81)
          (name "Pin_4" (effects (font (size 1.27 1.27))))
          (number "4" (effects (font (size 1.27 1.27))))
        )
        (pin passive line (at -5.08 -8.89 0) (length 3.81)
          (name "Pin_5" (effects (font (size 1.27 1.27))))
          (number "5" (effects (font (size 1.27 1.27))))
        )
      )
    )
  )


  (global_label "c" (shape input) (at 62.23 128.27 180) (fields_autoplaced)
    (effects (font (size 1.27 1.27)) (justify right))
    (uuid 108f72b6-e9c7-4562-9d08-9912465fa216)
    (property "Intersheetrefs" "${INTERSHEET_REFS}" (at 95.25 262.89 0)
      (effects (font (size 1.27 1.27)) hide)
    )
  )
  (global_label "g" (shape input) (at 33.02 129.54 0) (fields_autoplaced)
    (effects (font (size 1.27 1.27)) (justify left))
    (uuid 173f6f06-e7d0-42ac-ab03-ce6b79b9eeee)
    (property "Intersheetrefs" "${INTERSHEET_REFS}" (at 0 0 0)
      (effects (font (size 1.27 1.27)) hide)
    )
  )
  (global_label "c" (shape input) (at 62.23 110.49 180) (fields_autoplaced)
    (effects (font (size 1.27 1.27)) (justify right))
    (uuid 196f058e-8f27-44e0-b0fd-f8cc62686315)
    (property "Intersheetrefs" "${INTERSHEET_REFS}" (at 95.25 245.11 0)
      (effects (font (size 1.27 1.27)) hide)
    )
  )
  (global_label "g" (shape input) (at 62.23 107.95 180) (fields_autoplaced)
    (effects (font (size 1.27 1.27)) (justify right))
    (uuid 4699291b-5ea2-4f18-89a9-48e46658cc16)
    (property "Intersheetrefs" "${INTERSHEET_REFS}" (at 0 -17.78 0)
      (effects (font (size 1.27 1.27)) hide)
    )
  )
  (global_label "a" (shape input) (at 62.23 146.05 180) (fields_autoplaced)
    (effects (font (size 1.27 1.27)) (justify right))
    (uuid 494fce80-df7e-4e8e-aa41-5e7742fa2c1f)
    (property "Intersheetrefs" "${INTERSHEET_REFS}" (at 95.25 270.51 0)
      (effects (font (size 1.27 1.27)) hide)
    )
  )
  (global_label "a" (shape input) (at 62.23 138.43 180) (fields_autoplaced)
    (effects (font (size 1.27 1.27)) (justify right))
    (uuid 5a024088-6937-4126-bed0-b3d42ebf7a88)
    (property "Intersheetrefs" "${INTERSHEET_REFS}" (at 95.25 262.89 0)
      (effects (font (size 1.27 1.27)) hide)
    )
  )
  (global_label "f" (shape input) (at 62.23 123.19 180) (fields_autoplaced)
    (effects (font (size 1.27 1.27)) (justify right))
    (uuid 85866164-6ed9-4bc8-abf5-a867e210a92b)
    (property "Intersheetrefs" "${INTERSHEET_REFS}" (at 95.25 262.89 0)
      (effects (font (size 1.27 1.27)) hide)
    )
  )
  (global_label "d" (shape input) (at 33.02 132.08 0) (fields_autoplaced)
    (effects (font (size 1.27 1.27)) (justify left))
    (uuid 8c0807a7-765b-4fa5-baaa-e09a2b610e6b)
    (property "Intersheetrefs" "${INTERSHEET_REFS}" (at 0 0 0)
      (effects (font (size 1.27 1.27)) hide)
    )
  )
  (global_label "e" (shape input) (at 62.23 125.73 180) (fields_autoplaced)
    (effects (font (size 1.27 1.27)) (justify right))
    (uuid 92416daa-c594-45c2-8109-eaad5e4a2b39)
    (property "Intersheetrefs" "${INTERSHEET_REFS}" (at 95.25 262.89 0)
      (effects (font (size 1.27 1.27)) hide)
    )
  )
  (global_label "b" (shape input) (at 33.02 111.76 0) (fields_autoplaced)
    (effects (font (size 1.27 1.27)) (justify left))
    (uuid 92592b85-3719-4db8-9d54-3873879581aa)
    (property "Intersheetrefs" "${INTERSHEET_REFS}" (at 0 -15.24 0)
      (effects (font (size 1.27 1.27)) hide)
    )
  )
  (global_label "c" (shape input) (at 33.02 134.62 0) (fields_autoplaced)
    (effects (font (size 1.27 1.27)) (justify left))
    (uuid 935f462d-8b1e-4005-9f1e-17f537ab1756)
    (property "Intersheetrefs" "${INTERSHEET_REFS}" (at 0 0 0)
      (effects (font (size 1.27 1.27)) hide)
    )
  )
  (global_label "c" (shape input) (at 62.23 148.59 180) (fields_autoplaced)
    (effects (font (size 1.27 1.27)) (justify right))
    (uuid a4f86a46-3bc8-4daa-9125-a63f297eb114)
    (property "Intersheetrefs" "${INTERSHEET_REFS}" (at 0 0 0)
      (effects (font (size 1.27 1.27)) hide)
    )
  )
  (global_label "g" (shape input) (at 33.02 149.86 0) (fields_autoplaced)
    (effects (font (size 1.27 1.27)) (justify left))
    (uuid a53767ed-bb28-4f90-abe0-e0ea734812a4)
    (property "Intersheetrefs" "${INTERSHEET_REFS}" (at 0 0 0)
      (effects (font (size 1.27 1.27)) hide)
    )
  )
  (global_label "a" (shape input) (at 33.02 124.46 0) (fields_autoplaced)
    (effects (font (size 1.27 1.27)) (justify left))
    (uuid a5e521b9-814e-4853-a5ac-f158785c6269)
    (property "Intersheetrefs" "${INTERSHEET_REFS}" (at 0 0 0)
      (effects (font (size 1.27 1.27)) hide)
    )
  )
  (global_label "f" (shape input) (at 33.02 109.22 0) (fields_autoplaced)
    (effects (font (size 1.27 1.27)) (justify left))
    (uuid a6ccc556-da88-4006-ae1a-cc35733efef3)
    (property "Intersheetrefs" "${INTERSHEET_REFS}" (at 0 0 0)
      (effects (font (size 1.27 1.27)) hide)
    )
  )
  (global_label "f" (shape input) (at 33.02 139.7 0) (fields_autoplaced)
    (effects (font (size 1.27 1.27)) (justify left))
    (uuid b6135480-ace6-42b2-9c47-856ef57cded1)
    (property "Intersheetrefs" "${INTERSHEET_REFS}" (at 0 0 0)
      (effects (font (size 1.27 1.27)) hide)
    )
  )
  (global_label "b" (shape input) (at 33.02 127 0) (fields_autoplaced)
    (effects (font (size 1.27 1.27)) (justify left))
    (uuid cb16d05e-318b-4e51-867b-70d791d75bea)
    (property "Intersheetrefs" "${INTERSHEET_REFS}" (at 0 0 0)
      (effects (font (size 1.27 1.27)) hide)
    )
  )
  (global_label "d" (shape input) (at 62.23 130.81 180) (fields_autoplaced)
    (effects (font (size 1.27 1.27)) (justify right))
    (uuid cc27afa1-1bac-47c4-a756-91e46afa5289)
    (property "Intersheetrefs" "${INTERSHEET_REFS}" (at 95.25 262.89 0)
      (effects (font (size 1.27 1.27)) hide)
    )
  )
  (global_label "e" (shape input) (at 33.02 137.16 0) (fields_autoplaced)
    (effects (font (size 1.27 1.27)) (justify left))
    (uuid dc2801a1-d539-4721-b31f-fe196b9f13df)
    (property "Intersheetrefs" "${INTERSHEET_REFS}" (at 0 0 0)
      (effects (font (size 1.27 1.27)) hide)
    )
  )
  (global_label "b" (shape input) (at 62.23 135.89 180) (fields_autoplaced)
    (effects (font (size 1.27 1.27)) (justify right))
    (uuid dd9e69cd-8afd-4364-aa6b-ae9d1963a705)
    (property "Intersheetrefs" "${INTERSHEET_REFS}" (at 95.25 262.89 0)
      (effects (font (size 1.27 1.27)) hide)
    )
  )
  (global_label "b" (shape input) (at 33.02 147.32 0) (fields_autoplaced)
    (effects (font (size 1.27 1.27)) (justify left))
    (uuid e4aa537c-eb9d-4dbb-ac87-fae46af42391)
    (property "Intersheetrefs" "${INTERSHEET_REFS}" (at 0 0 0)
      (effects (font (size 1.27 1.27)) hide)
    )
  )
  (global_label "g" (shape input) (at 62.23 133.35 180) (fields_autoplaced)
    (effects (font (size 1.27 1.27)) (justify right))
    (uuid f188be98-e211-4a4a-b6a1-28610f57e6cb)
    (property "Intersheetrefs" "${INTERSHEET_REFS}" (at 0 7.62 0)
      (effects (font (size 1.27 1.27)) hide)
    )
  )
  (global_label "side5" (shape input) (at 33.02 121.92 0) (fields_autoplaced)
    (effects (font (size 1.27 1.27)) (justify left))
    (uuid feb26ecb-9193-46ea-a41b-d09305bf0a3e)
    (property "Intersheetrefs" "${INTERSHEET_REFS}" (at 0 0 0)
      (effects (font (size 1.27 1.27)) hide)
    )
  )

  (symbol (lib_id "dice-rescue:GND-Power") (at 62.23 114.3 270) (unit 1)
    (in_bom yes) (on_board yes) (dnp no)
    (uuid 00000000-0000-0000-0000-00005e96f3a0)
    (property "Reference" "#PWR0110" (at 55.88 114.3 0)
      (effects (font (size 1.27 1.27)) hide)
    )
    (property "Value" "GND" (at 58.9788 114.427 90)
      (effects (font (size 1.27 1.27)) (justify right))
    )
    (property "Footprint" "" (at 62.23 114.3 0)
      (effects (font (size 1.27 1.27)) hide)
    )
    (property "Datasheet" "" (at 62.23 114.3 0)
      (effects (font (size 1.27 1.27)) hide)
    )
    (pin "1" (uuid 63892cea-0371-47b0-925d-c40106168946))
    (instances
      (project "dice"
        (path "/b6270a28-e0d9-4655-a18a-03dbf007b940/00000000-0000-0000-0000-00005d8da265"
          (reference "#PWR0110") (unit 1)
        )
      )
    )
  )

  (symbol (lib_id "dice-rescue:GND-Power") (at 33.02 143.51 90) (mirror x) (unit 1)
    (in_bom yes) (on_board yes) (dnp no)
    (uuid 00000000-0000-0000-0000-00005e987ebd)
    (property "Reference" "#PWR07" (at 39.37 143.51 0)
      (effects (font (size 1.27 1.27)) hide)
    )
    (property "Value" "GND" (at 36.2712 143.637 90)
      (effects (font (size 1.27 1.27)) (justify right))
    )
    (property "Footprint" "" (at 33.02 143.51 0)
      (effects (font (size 1.27 1.27)) hide)
    )
    (property "Datasheet" "" (at 33.02 143.51 0)
      (effects (font (size 1.27 1.27)) hide)
    )
    (pin "1" (uuid fed6a1e7-e233-4dff-87e0-8992a65c8dd0))
    (instances
      (project "dice"
        (path "/b6270a28-e0d9-4655-a18a-03dbf007b940/00000000-0000-0000-0000-00005d8da265"
          (reference "#PWR07") (unit 1)
        )
      )
    )
  )

  (symbol (lib_id "dice:Conn_01x05_Female-Connector") (at 27.94 127 0) (mirror y) (unit 1)
    (in_bom yes) (on_board yes) (dnp no)
    (uuid 00000000-0000-0000-0000-000061a79d60)
    (property "Reference" "J22" (at 25.4 134.62 0)
      (effects (font (size 1.27 1.27)))
    )
    (property "Value" "Conn_01x05_Female-Connector" (at 11.43 132.08 0)
      (effects (font (size 1.27 1.27)))
    )
    (property "Footprint" "Parts:castellated_hole_1x5" (at 27.94 127 0)
      (effects (font (size 1.27 1.27)) hide)
    )
    (property "Datasheet" "" (at 27.94 127 0)
      (effects (font (size 1.27 1.27)) hide)
    )
    (pin "1" (uuid 45245258-c97a-4586-bc43-2154c85c0ef6))
    (pin "2" (uuid 1bb16fed-1537-47fa-90f6-8dc136da5d16))
    (pin "3" (uuid dd01ca49-c8a2-4580-af9a-2e9bce9769bc))
    (pin "4" (uuid 1d801ac4-6429-45d9-ad70-9dd82bd9c030))
    (pin "5" (uuid 443de8e6-6c50-4145-a643-8098c9ffc1e6))
    (instances
      (project "dice"
        (path "/b6270a28-e0d9-4655-a18a-03dbf007b940/00000000-0000-0000-0000-00005d8da265"
          (reference "J22") (unit 1)
        )
      )
    )
  )

  (symbol (lib_id "dice:Conn_01x05_Female-Connector_bend") (at 27.94 140.97 0) (mirror y) (unit 1)
    (in_bom yes) (on_board yes) (dnp no)
    (uuid 00000000-0000-0000-0000-000061a79d66)
    (property "Reference" "J23" (at 25.4 146.05 0)
      (effects (font (size 1.27 1.27)))
    )
    (property "Value" "Conn_01x05_Female-Connector_bend" (at 8.89 143.51 0)
      (effects (font (size 1.27 1.27)))
    )
    (property "Footprint" "Parts:castellated_hole_1x5_bend" (at 27.94 139.7 0)
      (effects (font (size 1.27 1.27)) hide)
    )
    (property "Datasheet" "" (at 27.94 139.7 0)
      (effects (font (size 1.27 1.27)) hide)
    )
    (pin "1" (uuid 895d5ca3-0e9a-421e-88ea-3017edd2db62))
    (pin "2" (uuid 2f122013-8dbc-4371-941a-b52e2115db20))
    (pin "3" (uuid aeae1c08-0511-41ff-896d-95b95a86eb35))
    (pin "4" (uuid 6597e724-ffad-43f1-9619-cca25cced87f))
    (pin "5" (uuid 0d7333ca-0587-43cb-9af7-f59016c85820))
    (instances
      (project "dice"
        (path "/b6270a28-e0d9-4655-a18a-03dbf007b940/00000000-0000-0000-0000-00005d8da265"
          (reference "J23") (unit 1)
        )
      )
    )
  )

  (symbol (lib_id "dice:Conn_01x05_Female-Connector_bend") (at 27.94 113.03 0) (mirror y) (unit 1)
    (in_bom yes) (on_board yes) (dnp no)
    (uuid 00000000-0000-0000-0000-000061a79d6c)
    (property "Reference" "J21" (at 25.4 116.84 0)
      (effects (font (size 1.27 1.27)))
    )
    (property "Value" "Conn_01x05_Female-Connector_bend" (at 8.89 114.3 0)
      (effects (font (size 1.27 1.27)))
    )
    (property "Footprint" "Parts:castellated_hole_1x5_bend" (at 27.94 111.76 0)
      (effects (font (size 1.27 1.27)) hide)
    )
    (property "Datasheet" "" (at 27.94 111.76 0)
      (effects (font (size 1.27 1.27)) hide)
    )
    (pin "1" (uuid d316b729-072f-4d15-a495-cbeb8407aea0))
    (pin "2" (uuid 1ba3e338-9465-4844-8361-6715d7885c15))
    (pin "3" (uuid ec1ade12-3e4c-4517-be56-01c5cfbeed11))
    (pin "4" (uuid 064853d1-fee5-4dc2-a187-8cbdd26d3919))
    (pin "5" (uuid a4971cc2-2bc0-4979-86df-10f6aaaa3b65))
    (instances
      (project "dice"
        (path "/b6270a28-e0d9-4655-a18a-03dbf007b940/00000000-0000-0000-0000-00005d8da265"
          (reference "J21") (unit 1)
        )
      )
    )
  )

  (symbol (lib_id "dice:Conn_01x05_Female-Connector") (at 67.31 130.81 0) (mirror x) (unit 1)
    (in_bom yes) (on_board yes) (dnp no)
    (uuid 00000000-0000-0000-0000-000061a7b743)
    (property "Reference" "J25" (at 68.0212 128.9304 0)
      (effects (font (size 1.27 1.27)) (justify left))
    )
    (property "Value" "Conn_01x05_Female-Connector" (at 68.0212 126.619 0)
      (effects (font (size 1.27 1.27)) (justify left))
    )
    (property "Footprint" "Parts:castellated_hole_1x5" (at 67.31 130.81 0)
      (effects (font (size 1.27 1.27)) hide)
    )
    (property "Datasheet" "" (at 67.31 130.81 0)
      (effects (font (size 1.27 1.27)) hide)
    )
    (pin "1" (uuid 7f7833f4-976f-4a80-99c4-69f2976ed565))
    (pin "2" (uuid ec7073f7-f754-4ee6-a977-3d11d16480f8))
    (pin "3" (uuid a8470270-920a-4fed-9691-22526135f92c))
    (pin "4" (uuid 513c5122-3fbb-44b6-aa2c-74224719f915))
    (pin "5" (uuid f99552ce-0729-4ada-aef3-5686270d7c4d))
    (instances
      (project "dice"
        (path "/b6270a28-e0d9-4655-a18a-03dbf007b940/00000000-0000-0000-0000-00005d8da265"
          (reference "J25") (unit 1)
        )
      )
    )
  )

  (symbol (lib_id "dice:Conn_01x05_Female-Connector_bend") (at 67.31 116.84 0) (mirror x) (unit 1)
    (in_bom yes) (on_board yes) (dnp no)
    (uuid 00000000-0000-0000-0000-000061a7b749)
    (property "Reference" "J24" (at 68.0212 114.9604 0)
      (effects (font (size 1.27 1.27)) (justify left))
    )
    (property "Value" "Conn_01x05_Female-Connector_bend" (at 68.0212 112.649 0)
      (effects (font (size 1.27 1.27)) (justify left))
    )
    (property "Footprint" "Parts:castellated_hole_1x5_bend" (at 67.31 118.11 0)
      (effects (font (size 1.27 1.27)) hide)
    )
    (property "Datasheet" "" (at 67.31 118.11 0)
      (effects (font (size 1.27 1.27)) hide)
    )
    (pin "1" (uuid 31e2d26e-842a-4694-a3ae-7642d792727c))
    (pin "2" (uuid 3f1d3b22-3ba1-4783-af8d-526bce7c36db))
    (pin "3" (uuid 449cc181-df4b-4d3b-93ef-0653c2171fe8))
    (pin "4" (uuid eec347af-8fb3-4b2d-8e93-6e7176516f57))
    (pin "5" (uuid 969d876f-dc87-40bf-9e96-03cbb9ea5e82))
    (instances
      (project "dice"
        (path "/b6270a28-e0d9-4655-a18a-03dbf007b940/00000000-0000-0000-0000-00005d8da265"
          (reference "J24") (unit 1)
        )
      )
    )
  )

  (symbol (lib_id "dice:Conn_01x05_Female-Connector_bend") (at 67.31 144.78 0) (mirror x) (unit 1)
    (in_bom yes) (on_board yes) (dnp no)
    (uuid 00000000-0000-0000-0000-000061a7b74f)
    (property "Reference" "J26" (at 68.0212 142.9004 0)
      (effects (font (size 1.27 1.27)) (justify left))
    )
    (property "Value" "Conn_01x05_Female-Connector_bend" (at 68.0212 140.589 0)
      (effects (font (size 1.27 1.27)) (justify left))
    )
    (property "Footprint" "Parts:castellated_hole_1x5_bend" (at 67.31 146.05 0)
      (effects (font (size 1.27 1.27)) hide)
    )
    (property "Datasheet" "" (at 67.31 146.05 0)
      (effects (font (size 1.27 1.27)) hide)
    )
    (pin "1" (uuid fbca7d5b-4a19-4f46-9697-74b3068179aa))
    (pin "2" (uuid 7401f61b-dc36-4f5a-ba3e-b101a22bf1fc))
    (pin "3" (uuid 11cae898-6e02-4314-87c3-bfa88f249303))
    (pin "4" (uuid 3a4d7b94-8b26-4555-b396-f2e88aea5db3))
    (pin "5" (uuid 8c4cd1a2-9a92-4fba-aa2e-8b86c17dce10))
    (instances
      (project "dice"
        (path "/b6270a28-e0d9-4655-a18a-03dbf007b940/00000000-0000-0000-0000-00005d8da265"
          (reference "J26") (unit 1)
        )
      )
    )
  )

  (symbol (lib_id "dice:+3.0V-power") (at 33.02 115.57 270) (unit 1)
    (in_bom yes) (on_board yes) (dnp no) (fields_autoplaced)
    (uuid 12d87f3c-99f6-4692-bb97-8e2f83a4f2c3)
    (property "Reference" "#PWR020" (at 29.21 115.57 0)
      (effects (font (size 1.27 1.27)) hide)
    )
    (property "Value" "+3.0V-power" (at 36.83 115.57 90)
      (effects (font (size 1.27 1.27)) (justify left))
    )
    (property "Footprint" "" (at 33.02 115.57 0)
      (effects (font (size 1.27 1.27)) hide)
    )
    (property "Datasheet" "" (at 33.02 115.57 0)
      (effects (font (size 1.27 1.27)) hide)
    )
    (pin "1" (uuid ae08d728-8014-4cc7-b428-07cd9e1851bb))
    (instances
      (project "dice"
        (path "/b6270a28-e0d9-4655-a18a-03dbf007b940/00000000-0000-0000-0000-00005d8da265"
          (reference "#PWR020") (unit 1)
        )
      )
    )
  )

  (symbol (lib_id "dice:+3.0V-power") (at 62.23 142.24 90) (unit 1)
    (in_bom yes) (on_board yes) (dnp no) (fields_autoplaced)
    (uuid c287614a-f308-461a-a8bb-88b6e0064e60)
    (property "Reference" "#PWR021" (at 66.04 142.24 0)
      (effects (font (size 1.27 1.27)) hide)
    )
    (property "Value" "+3.0V-power" (at 58.42 142.24 90)
      (effects (font (size 1.27 1.27)) (justify left))
    )
    (property "Footprint" "" (at 62.23 142.24 0)
      (effects (font (size 1.27 1.27)) hide)
    )
    (property "Datasheet" "" (at 62.23 142.24 0)
      (effects (font (size 1.27 1.27)) hide)
    )
    (pin "1" (uuid 1f7c1868-2845-4dd7-983d-411a4f46d056))
    (instances
      (project "dice"
        (path "/b6270a28-e0d9-4655-a18a-03dbf007b940/00000000-0000-0000-0000-00005d8da265"
          (reference "#PWR021") (unit 1)
        )
      )
    )
  )

  (sheet (at 190.5 119.38) (size 25.4 17.78) (fields_autoplaced)
    (stroke (width 0) (type solid))
    (fill (color 0 0 0 0.0000))
    (uuid 00000000-0000-0000-0000-00005e98cebb)
    (property "Sheetname" "7_segment_5" (at 190.5 118.6684 0)
      (effects (font (size 1.27 1.27)) (justify left bottom))
    )
    (property "Sheetfile" "7_segment_5.kicad_sch" (at 190.5 137.7446 0)
      (effects (font (size 1.27 1.27)) (justify left top))
    )
    (instances
      (project "dice"
        (path "/b6270a28-e0d9-4655-a18a-03dbf007b940/00000000-0000-0000-0000-00005d8da265" (page "6"))
      )
    )
  )
)
