(footprint "LED_0603_1608Metric" (version 20211014) (generator pcbnew)
  (layer "F.Cu")
  (tedit 6235BE4D)
  (descr "LED SMD 0603 (1608 Metric), square (rectangular) end terminal, IPC_7351 nominal, (Body size source: http://www.tortai-tech.com/upload/download/2011102023233369053.pdf), generated with kicad-footprint-generator")
  (tags "LED")
  (attr smd)
  (fp_text reference "REF**" (at 0.2794 -1.4986) (layer "F.SilkS")
    (effects (font (size 1 1) (thickness 0.15)))
    (tstamp eab031c0-9c3b-48cd-a6db-a44da25a5cc2)
  )
  (fp_text value "LED_0603_1608Metric" (at -0.1524 1.8288) (layer "F.Fab")
    (effects (font (size 1 1) (thickness 0.15)))
    (tstamp 579f52c4-4cc6-4de6-9d7b-555d07ae02a9)
  )
  (fp_text user "${REFERENCE}" (at 0 0) (layer "F.Fab")
    (effects (font (size 0.4 0.4) (thickness 0.06)))
    (tstamp e6a9339f-f75c-462a-9976-688512648d27)
  )
  (fp_line (start -1.4986 -0.254) (end -1.4986 0.2794) (layer "F.SilkS") (width 0.12) (tstamp 89713f39-a2eb-4d3d-87b7-3fd5d49eebaf))
  (fp_line (start -1.48 -0.73) (end 1.48 -0.73) (layer "F.CrtYd") (width 0.05) (tstamp 09ee42d8-5e44-4653-a9e3-96b36db878fa))
  (fp_line (start -1.48 0.73) (end -1.48 -0.73) (layer "F.CrtYd") (width 0.05) (tstamp 6f9dba1a-ad4b-4b83-afc4-6828bbbd836b))
  (fp_line (start 1.48 0.73) (end -1.48 0.73) (layer "F.CrtYd") (width 0.05) (tstamp 7b035b14-3bb9-4006-b86b-d523a7a87493))
  (fp_line (start 1.48 -0.73) (end 1.48 0.73) (layer "F.CrtYd") (width 0.05) (tstamp a464c315-5391-46a6-90bc-bc699a62bb93))
  (fp_line (start -0.5 -0.4) (end -0.8 -0.1) (layer "F.Fab") (width 0.1) (tstamp 177e875f-4785-4de5-b99b-a835ba318a44))
  (fp_line (start 0.8 -0.4) (end -0.5 -0.4) (layer "F.Fab") (width 0.1) (tstamp 2979e3a0-3605-49e3-aa66-4b2a3861df27))
  (fp_line (start -0.8 0.4) (end 0.8 0.4) (layer "F.Fab") (width 0.1) (tstamp 3f56a0eb-c219-4c1d-a17b-7410e1eff383))
  (fp_line (start 0.8 0.4) (end 0.8 -0.4) (layer "F.Fab") (width 0.1) (tstamp 8ed6e134-49b2-4e8d-ac45-94d161b7de0d))
  (fp_line (start -0.8 -0.1) (end -0.8 0.4) (layer "F.Fab") (width 0.1) (tstamp a8235301-1032-4d29-b4f9-d2a37436df0f))
  (pad "1" smd roundrect (at -0.7875 0) (size 0.875 0.95) (layers "F.Cu" "F.Paste" "F.Mask") (roundrect_rratio 0.25) (tstamp e1066969-8403-4e10-840b-5e645ff39065))
  (pad "2" smd roundrect (at 0.7875 0) (size 0.875 0.95) (layers "F.Cu" "F.Paste" "F.Mask") (roundrect_rratio 0.25) (tstamp f70aca5d-9034-4428-b189-0fb988a008af))
  (model "${KISYS3DMOD}/LED_SMD.3dshapes/LED_0603_1608Metric.wrl"
    (offset (xyz 0 0 0))
    (scale (xyz 1 1 1))
    (rotate (xyz 0 0 0))
  )
)
