G04 #@! TF.GenerationSoftware,KiCad,Pcbnew,5.1.5*
G04 #@! TF.CreationDate,2020-04-07T09:26:20+02:00*
G04 #@! TF.ProjectId,dice,64696365-2e6b-4696-9361-645f70636258,rev?*
G04 #@! TF.SameCoordinates,Original*
G04 #@! TF.FileFunction,Copper,L1,Top*
G04 #@! TF.FilePolarity,Positive*
%FSLAX46Y46*%
G04 Gerber Fmt 4.6, Leading zero omitted, Abs format (unit mm)*
G04 Created by KiCad (PCBNEW 5.1.5) date 2020-04-07 09:26:20*
%MOMM*%
%LPD*%
G04 APERTURE LIST*
%ADD10R,1.000000X1.000000*%
%ADD11C,0.100000*%
%ADD12C,0.450000*%
%ADD13C,0.150000*%
%ADD14C,0.090000*%
G04 APERTURE END LIST*
D10*
X79400000Y-99900000D03*
X77900000Y-99900000D03*
X77900000Y-101400000D03*
X77900000Y-102900000D03*
X79400000Y-110400000D03*
X77900000Y-104400000D03*
X77900000Y-105900000D03*
X77900000Y-107400000D03*
X77900000Y-108900000D03*
X77900000Y-110400000D03*
G04 #@! TA.AperFunction,SMDPad,CuDef*
D11*
G36*
X84996958Y-110180710D02*
G01*
X85011276Y-110182834D01*
X85025317Y-110186351D01*
X85038946Y-110191228D01*
X85052031Y-110197417D01*
X85064447Y-110204858D01*
X85076073Y-110213481D01*
X85086798Y-110223202D01*
X85096519Y-110233927D01*
X85105142Y-110245553D01*
X85112583Y-110257969D01*
X85118772Y-110271054D01*
X85123649Y-110284683D01*
X85127166Y-110298724D01*
X85129290Y-110313042D01*
X85130000Y-110327500D01*
X85130000Y-110672500D01*
X85129290Y-110686958D01*
X85127166Y-110701276D01*
X85123649Y-110715317D01*
X85118772Y-110728946D01*
X85112583Y-110742031D01*
X85105142Y-110754447D01*
X85096519Y-110766073D01*
X85086798Y-110776798D01*
X85076073Y-110786519D01*
X85064447Y-110795142D01*
X85052031Y-110802583D01*
X85038946Y-110808772D01*
X85025317Y-110813649D01*
X85011276Y-110817166D01*
X84996958Y-110819290D01*
X84982500Y-110820000D01*
X84687500Y-110820000D01*
X84673042Y-110819290D01*
X84658724Y-110817166D01*
X84644683Y-110813649D01*
X84631054Y-110808772D01*
X84617969Y-110802583D01*
X84605553Y-110795142D01*
X84593927Y-110786519D01*
X84583202Y-110776798D01*
X84573481Y-110766073D01*
X84564858Y-110754447D01*
X84557417Y-110742031D01*
X84551228Y-110728946D01*
X84546351Y-110715317D01*
X84542834Y-110701276D01*
X84540710Y-110686958D01*
X84540000Y-110672500D01*
X84540000Y-110327500D01*
X84540710Y-110313042D01*
X84542834Y-110298724D01*
X84546351Y-110284683D01*
X84551228Y-110271054D01*
X84557417Y-110257969D01*
X84564858Y-110245553D01*
X84573481Y-110233927D01*
X84583202Y-110223202D01*
X84593927Y-110213481D01*
X84605553Y-110204858D01*
X84617969Y-110197417D01*
X84631054Y-110191228D01*
X84644683Y-110186351D01*
X84658724Y-110182834D01*
X84673042Y-110180710D01*
X84687500Y-110180000D01*
X84982500Y-110180000D01*
X84996958Y-110180710D01*
G37*
G04 #@! TD.AperFunction*
G04 #@! TA.AperFunction,SMDPad,CuDef*
G36*
X84026958Y-110180710D02*
G01*
X84041276Y-110182834D01*
X84055317Y-110186351D01*
X84068946Y-110191228D01*
X84082031Y-110197417D01*
X84094447Y-110204858D01*
X84106073Y-110213481D01*
X84116798Y-110223202D01*
X84126519Y-110233927D01*
X84135142Y-110245553D01*
X84142583Y-110257969D01*
X84148772Y-110271054D01*
X84153649Y-110284683D01*
X84157166Y-110298724D01*
X84159290Y-110313042D01*
X84160000Y-110327500D01*
X84160000Y-110672500D01*
X84159290Y-110686958D01*
X84157166Y-110701276D01*
X84153649Y-110715317D01*
X84148772Y-110728946D01*
X84142583Y-110742031D01*
X84135142Y-110754447D01*
X84126519Y-110766073D01*
X84116798Y-110776798D01*
X84106073Y-110786519D01*
X84094447Y-110795142D01*
X84082031Y-110802583D01*
X84068946Y-110808772D01*
X84055317Y-110813649D01*
X84041276Y-110817166D01*
X84026958Y-110819290D01*
X84012500Y-110820000D01*
X83717500Y-110820000D01*
X83703042Y-110819290D01*
X83688724Y-110817166D01*
X83674683Y-110813649D01*
X83661054Y-110808772D01*
X83647969Y-110802583D01*
X83635553Y-110795142D01*
X83623927Y-110786519D01*
X83613202Y-110776798D01*
X83603481Y-110766073D01*
X83594858Y-110754447D01*
X83587417Y-110742031D01*
X83581228Y-110728946D01*
X83576351Y-110715317D01*
X83572834Y-110701276D01*
X83570710Y-110686958D01*
X83570000Y-110672500D01*
X83570000Y-110327500D01*
X83570710Y-110313042D01*
X83572834Y-110298724D01*
X83576351Y-110284683D01*
X83581228Y-110271054D01*
X83587417Y-110257969D01*
X83594858Y-110245553D01*
X83603481Y-110233927D01*
X83613202Y-110223202D01*
X83623927Y-110213481D01*
X83635553Y-110204858D01*
X83647969Y-110197417D01*
X83661054Y-110191228D01*
X83674683Y-110186351D01*
X83688724Y-110182834D01*
X83703042Y-110180710D01*
X83717500Y-110180000D01*
X84012500Y-110180000D01*
X84026958Y-110180710D01*
G37*
G04 #@! TD.AperFunction*
D10*
X87100000Y-110400000D03*
X88600000Y-110400000D03*
X88600000Y-108900000D03*
X88600000Y-107400000D03*
X87100000Y-99900000D03*
X88600000Y-105900000D03*
X88600000Y-104400000D03*
X88600000Y-102900000D03*
X88600000Y-101400000D03*
X88600000Y-99900000D03*
G04 #@! TA.AperFunction,SMDPad,CuDef*
D11*
G36*
X85936958Y-108170710D02*
G01*
X85951276Y-108172834D01*
X85965317Y-108176351D01*
X85978946Y-108181228D01*
X85992031Y-108187417D01*
X86004447Y-108194858D01*
X86016073Y-108203481D01*
X86026798Y-108213202D01*
X86036519Y-108223927D01*
X86045142Y-108235553D01*
X86052583Y-108247969D01*
X86058772Y-108261054D01*
X86063649Y-108274683D01*
X86067166Y-108288724D01*
X86069290Y-108303042D01*
X86070000Y-108317500D01*
X86070000Y-108612500D01*
X86069290Y-108626958D01*
X86067166Y-108641276D01*
X86063649Y-108655317D01*
X86058772Y-108668946D01*
X86052583Y-108682031D01*
X86045142Y-108694447D01*
X86036519Y-108706073D01*
X86026798Y-108716798D01*
X86016073Y-108726519D01*
X86004447Y-108735142D01*
X85992031Y-108742583D01*
X85978946Y-108748772D01*
X85965317Y-108753649D01*
X85951276Y-108757166D01*
X85936958Y-108759290D01*
X85922500Y-108760000D01*
X85577500Y-108760000D01*
X85563042Y-108759290D01*
X85548724Y-108757166D01*
X85534683Y-108753649D01*
X85521054Y-108748772D01*
X85507969Y-108742583D01*
X85495553Y-108735142D01*
X85483927Y-108726519D01*
X85473202Y-108716798D01*
X85463481Y-108706073D01*
X85454858Y-108694447D01*
X85447417Y-108682031D01*
X85441228Y-108668946D01*
X85436351Y-108655317D01*
X85432834Y-108641276D01*
X85430710Y-108626958D01*
X85430000Y-108612500D01*
X85430000Y-108317500D01*
X85430710Y-108303042D01*
X85432834Y-108288724D01*
X85436351Y-108274683D01*
X85441228Y-108261054D01*
X85447417Y-108247969D01*
X85454858Y-108235553D01*
X85463481Y-108223927D01*
X85473202Y-108213202D01*
X85483927Y-108203481D01*
X85495553Y-108194858D01*
X85507969Y-108187417D01*
X85521054Y-108181228D01*
X85534683Y-108176351D01*
X85548724Y-108172834D01*
X85563042Y-108170710D01*
X85577500Y-108170000D01*
X85922500Y-108170000D01*
X85936958Y-108170710D01*
G37*
G04 #@! TD.AperFunction*
G04 #@! TA.AperFunction,SMDPad,CuDef*
G36*
X85936958Y-109140710D02*
G01*
X85951276Y-109142834D01*
X85965317Y-109146351D01*
X85978946Y-109151228D01*
X85992031Y-109157417D01*
X86004447Y-109164858D01*
X86016073Y-109173481D01*
X86026798Y-109183202D01*
X86036519Y-109193927D01*
X86045142Y-109205553D01*
X86052583Y-109217969D01*
X86058772Y-109231054D01*
X86063649Y-109244683D01*
X86067166Y-109258724D01*
X86069290Y-109273042D01*
X86070000Y-109287500D01*
X86070000Y-109582500D01*
X86069290Y-109596958D01*
X86067166Y-109611276D01*
X86063649Y-109625317D01*
X86058772Y-109638946D01*
X86052583Y-109652031D01*
X86045142Y-109664447D01*
X86036519Y-109676073D01*
X86026798Y-109686798D01*
X86016073Y-109696519D01*
X86004447Y-109705142D01*
X85992031Y-109712583D01*
X85978946Y-109718772D01*
X85965317Y-109723649D01*
X85951276Y-109727166D01*
X85936958Y-109729290D01*
X85922500Y-109730000D01*
X85577500Y-109730000D01*
X85563042Y-109729290D01*
X85548724Y-109727166D01*
X85534683Y-109723649D01*
X85521054Y-109718772D01*
X85507969Y-109712583D01*
X85495553Y-109705142D01*
X85483927Y-109696519D01*
X85473202Y-109686798D01*
X85463481Y-109676073D01*
X85454858Y-109664447D01*
X85447417Y-109652031D01*
X85441228Y-109638946D01*
X85436351Y-109625317D01*
X85432834Y-109611276D01*
X85430710Y-109596958D01*
X85430000Y-109582500D01*
X85430000Y-109287500D01*
X85430710Y-109273042D01*
X85432834Y-109258724D01*
X85436351Y-109244683D01*
X85441228Y-109231054D01*
X85447417Y-109217969D01*
X85454858Y-109205553D01*
X85463481Y-109193927D01*
X85473202Y-109183202D01*
X85483927Y-109173481D01*
X85495553Y-109164858D01*
X85507969Y-109157417D01*
X85521054Y-109151228D01*
X85534683Y-109146351D01*
X85548724Y-109142834D01*
X85563042Y-109140710D01*
X85577500Y-109140000D01*
X85922500Y-109140000D01*
X85936958Y-109140710D01*
G37*
G04 #@! TD.AperFunction*
G04 #@! TA.AperFunction,SMDPad,CuDef*
G36*
X81726958Y-104930710D02*
G01*
X81741276Y-104932834D01*
X81755317Y-104936351D01*
X81768946Y-104941228D01*
X81782031Y-104947417D01*
X81794447Y-104954858D01*
X81806073Y-104963481D01*
X81816798Y-104973202D01*
X81826519Y-104983927D01*
X81835142Y-104995553D01*
X81842583Y-105007969D01*
X81848772Y-105021054D01*
X81853649Y-105034683D01*
X81857166Y-105048724D01*
X81859290Y-105063042D01*
X81860000Y-105077500D01*
X81860000Y-105422500D01*
X81859290Y-105436958D01*
X81857166Y-105451276D01*
X81853649Y-105465317D01*
X81848772Y-105478946D01*
X81842583Y-105492031D01*
X81835142Y-105504447D01*
X81826519Y-105516073D01*
X81816798Y-105526798D01*
X81806073Y-105536519D01*
X81794447Y-105545142D01*
X81782031Y-105552583D01*
X81768946Y-105558772D01*
X81755317Y-105563649D01*
X81741276Y-105567166D01*
X81726958Y-105569290D01*
X81712500Y-105570000D01*
X81417500Y-105570000D01*
X81403042Y-105569290D01*
X81388724Y-105567166D01*
X81374683Y-105563649D01*
X81361054Y-105558772D01*
X81347969Y-105552583D01*
X81335553Y-105545142D01*
X81323927Y-105536519D01*
X81313202Y-105526798D01*
X81303481Y-105516073D01*
X81294858Y-105504447D01*
X81287417Y-105492031D01*
X81281228Y-105478946D01*
X81276351Y-105465317D01*
X81272834Y-105451276D01*
X81270710Y-105436958D01*
X81270000Y-105422500D01*
X81270000Y-105077500D01*
X81270710Y-105063042D01*
X81272834Y-105048724D01*
X81276351Y-105034683D01*
X81281228Y-105021054D01*
X81287417Y-105007969D01*
X81294858Y-104995553D01*
X81303481Y-104983927D01*
X81313202Y-104973202D01*
X81323927Y-104963481D01*
X81335553Y-104954858D01*
X81347969Y-104947417D01*
X81361054Y-104941228D01*
X81374683Y-104936351D01*
X81388724Y-104932834D01*
X81403042Y-104930710D01*
X81417500Y-104930000D01*
X81712500Y-104930000D01*
X81726958Y-104930710D01*
G37*
G04 #@! TD.AperFunction*
G04 #@! TA.AperFunction,SMDPad,CuDef*
G36*
X82696958Y-104930710D02*
G01*
X82711276Y-104932834D01*
X82725317Y-104936351D01*
X82738946Y-104941228D01*
X82752031Y-104947417D01*
X82764447Y-104954858D01*
X82776073Y-104963481D01*
X82786798Y-104973202D01*
X82796519Y-104983927D01*
X82805142Y-104995553D01*
X82812583Y-105007969D01*
X82818772Y-105021054D01*
X82823649Y-105034683D01*
X82827166Y-105048724D01*
X82829290Y-105063042D01*
X82830000Y-105077500D01*
X82830000Y-105422500D01*
X82829290Y-105436958D01*
X82827166Y-105451276D01*
X82823649Y-105465317D01*
X82818772Y-105478946D01*
X82812583Y-105492031D01*
X82805142Y-105504447D01*
X82796519Y-105516073D01*
X82786798Y-105526798D01*
X82776073Y-105536519D01*
X82764447Y-105545142D01*
X82752031Y-105552583D01*
X82738946Y-105558772D01*
X82725317Y-105563649D01*
X82711276Y-105567166D01*
X82696958Y-105569290D01*
X82682500Y-105570000D01*
X82387500Y-105570000D01*
X82373042Y-105569290D01*
X82358724Y-105567166D01*
X82344683Y-105563649D01*
X82331054Y-105558772D01*
X82317969Y-105552583D01*
X82305553Y-105545142D01*
X82293927Y-105536519D01*
X82283202Y-105526798D01*
X82273481Y-105516073D01*
X82264858Y-105504447D01*
X82257417Y-105492031D01*
X82251228Y-105478946D01*
X82246351Y-105465317D01*
X82242834Y-105451276D01*
X82240710Y-105436958D01*
X82240000Y-105422500D01*
X82240000Y-105077500D01*
X82240710Y-105063042D01*
X82242834Y-105048724D01*
X82246351Y-105034683D01*
X82251228Y-105021054D01*
X82257417Y-105007969D01*
X82264858Y-104995553D01*
X82273481Y-104983927D01*
X82283202Y-104973202D01*
X82293927Y-104963481D01*
X82305553Y-104954858D01*
X82317969Y-104947417D01*
X82331054Y-104941228D01*
X82344683Y-104936351D01*
X82358724Y-104932834D01*
X82373042Y-104930710D01*
X82387500Y-104930000D01*
X82682500Y-104930000D01*
X82696958Y-104930710D01*
G37*
G04 #@! TD.AperFunction*
G04 #@! TA.AperFunction,SMDPad,CuDef*
G36*
X84026958Y-104930710D02*
G01*
X84041276Y-104932834D01*
X84055317Y-104936351D01*
X84068946Y-104941228D01*
X84082031Y-104947417D01*
X84094447Y-104954858D01*
X84106073Y-104963481D01*
X84116798Y-104973202D01*
X84126519Y-104983927D01*
X84135142Y-104995553D01*
X84142583Y-105007969D01*
X84148772Y-105021054D01*
X84153649Y-105034683D01*
X84157166Y-105048724D01*
X84159290Y-105063042D01*
X84160000Y-105077500D01*
X84160000Y-105422500D01*
X84159290Y-105436958D01*
X84157166Y-105451276D01*
X84153649Y-105465317D01*
X84148772Y-105478946D01*
X84142583Y-105492031D01*
X84135142Y-105504447D01*
X84126519Y-105516073D01*
X84116798Y-105526798D01*
X84106073Y-105536519D01*
X84094447Y-105545142D01*
X84082031Y-105552583D01*
X84068946Y-105558772D01*
X84055317Y-105563649D01*
X84041276Y-105567166D01*
X84026958Y-105569290D01*
X84012500Y-105570000D01*
X83717500Y-105570000D01*
X83703042Y-105569290D01*
X83688724Y-105567166D01*
X83674683Y-105563649D01*
X83661054Y-105558772D01*
X83647969Y-105552583D01*
X83635553Y-105545142D01*
X83623927Y-105536519D01*
X83613202Y-105526798D01*
X83603481Y-105516073D01*
X83594858Y-105504447D01*
X83587417Y-105492031D01*
X83581228Y-105478946D01*
X83576351Y-105465317D01*
X83572834Y-105451276D01*
X83570710Y-105436958D01*
X83570000Y-105422500D01*
X83570000Y-105077500D01*
X83570710Y-105063042D01*
X83572834Y-105048724D01*
X83576351Y-105034683D01*
X83581228Y-105021054D01*
X83587417Y-105007969D01*
X83594858Y-104995553D01*
X83603481Y-104983927D01*
X83613202Y-104973202D01*
X83623927Y-104963481D01*
X83635553Y-104954858D01*
X83647969Y-104947417D01*
X83661054Y-104941228D01*
X83674683Y-104936351D01*
X83688724Y-104932834D01*
X83703042Y-104930710D01*
X83717500Y-104930000D01*
X84012500Y-104930000D01*
X84026958Y-104930710D01*
G37*
G04 #@! TD.AperFunction*
G04 #@! TA.AperFunction,SMDPad,CuDef*
G36*
X84996958Y-104930710D02*
G01*
X85011276Y-104932834D01*
X85025317Y-104936351D01*
X85038946Y-104941228D01*
X85052031Y-104947417D01*
X85064447Y-104954858D01*
X85076073Y-104963481D01*
X85086798Y-104973202D01*
X85096519Y-104983927D01*
X85105142Y-104995553D01*
X85112583Y-105007969D01*
X85118772Y-105021054D01*
X85123649Y-105034683D01*
X85127166Y-105048724D01*
X85129290Y-105063042D01*
X85130000Y-105077500D01*
X85130000Y-105422500D01*
X85129290Y-105436958D01*
X85127166Y-105451276D01*
X85123649Y-105465317D01*
X85118772Y-105478946D01*
X85112583Y-105492031D01*
X85105142Y-105504447D01*
X85096519Y-105516073D01*
X85086798Y-105526798D01*
X85076073Y-105536519D01*
X85064447Y-105545142D01*
X85052031Y-105552583D01*
X85038946Y-105558772D01*
X85025317Y-105563649D01*
X85011276Y-105567166D01*
X84996958Y-105569290D01*
X84982500Y-105570000D01*
X84687500Y-105570000D01*
X84673042Y-105569290D01*
X84658724Y-105567166D01*
X84644683Y-105563649D01*
X84631054Y-105558772D01*
X84617969Y-105552583D01*
X84605553Y-105545142D01*
X84593927Y-105536519D01*
X84583202Y-105526798D01*
X84573481Y-105516073D01*
X84564858Y-105504447D01*
X84557417Y-105492031D01*
X84551228Y-105478946D01*
X84546351Y-105465317D01*
X84542834Y-105451276D01*
X84540710Y-105436958D01*
X84540000Y-105422500D01*
X84540000Y-105077500D01*
X84540710Y-105063042D01*
X84542834Y-105048724D01*
X84546351Y-105034683D01*
X84551228Y-105021054D01*
X84557417Y-105007969D01*
X84564858Y-104995553D01*
X84573481Y-104983927D01*
X84583202Y-104973202D01*
X84593927Y-104963481D01*
X84605553Y-104954858D01*
X84617969Y-104947417D01*
X84631054Y-104941228D01*
X84644683Y-104936351D01*
X84658724Y-104932834D01*
X84673042Y-104930710D01*
X84687500Y-104930000D01*
X84982500Y-104930000D01*
X84996958Y-104930710D01*
G37*
G04 #@! TD.AperFunction*
G04 #@! TA.AperFunction,SMDPad,CuDef*
G36*
X80836958Y-102905710D02*
G01*
X80851276Y-102907834D01*
X80865317Y-102911351D01*
X80878946Y-102916228D01*
X80892031Y-102922417D01*
X80904447Y-102929858D01*
X80916073Y-102938481D01*
X80926798Y-102948202D01*
X80936519Y-102958927D01*
X80945142Y-102970553D01*
X80952583Y-102982969D01*
X80958772Y-102996054D01*
X80963649Y-103009683D01*
X80967166Y-103023724D01*
X80969290Y-103038042D01*
X80970000Y-103052500D01*
X80970000Y-103347500D01*
X80969290Y-103361958D01*
X80967166Y-103376276D01*
X80963649Y-103390317D01*
X80958772Y-103403946D01*
X80952583Y-103417031D01*
X80945142Y-103429447D01*
X80936519Y-103441073D01*
X80926798Y-103451798D01*
X80916073Y-103461519D01*
X80904447Y-103470142D01*
X80892031Y-103477583D01*
X80878946Y-103483772D01*
X80865317Y-103488649D01*
X80851276Y-103492166D01*
X80836958Y-103494290D01*
X80822500Y-103495000D01*
X80477500Y-103495000D01*
X80463042Y-103494290D01*
X80448724Y-103492166D01*
X80434683Y-103488649D01*
X80421054Y-103483772D01*
X80407969Y-103477583D01*
X80395553Y-103470142D01*
X80383927Y-103461519D01*
X80373202Y-103451798D01*
X80363481Y-103441073D01*
X80354858Y-103429447D01*
X80347417Y-103417031D01*
X80341228Y-103403946D01*
X80336351Y-103390317D01*
X80332834Y-103376276D01*
X80330710Y-103361958D01*
X80330000Y-103347500D01*
X80330000Y-103052500D01*
X80330710Y-103038042D01*
X80332834Y-103023724D01*
X80336351Y-103009683D01*
X80341228Y-102996054D01*
X80347417Y-102982969D01*
X80354858Y-102970553D01*
X80363481Y-102958927D01*
X80373202Y-102948202D01*
X80383927Y-102938481D01*
X80395553Y-102929858D01*
X80407969Y-102922417D01*
X80421054Y-102916228D01*
X80434683Y-102911351D01*
X80448724Y-102907834D01*
X80463042Y-102905710D01*
X80477500Y-102905000D01*
X80822500Y-102905000D01*
X80836958Y-102905710D01*
G37*
G04 #@! TD.AperFunction*
G04 #@! TA.AperFunction,SMDPad,CuDef*
G36*
X80836958Y-103875710D02*
G01*
X80851276Y-103877834D01*
X80865317Y-103881351D01*
X80878946Y-103886228D01*
X80892031Y-103892417D01*
X80904447Y-103899858D01*
X80916073Y-103908481D01*
X80926798Y-103918202D01*
X80936519Y-103928927D01*
X80945142Y-103940553D01*
X80952583Y-103952969D01*
X80958772Y-103966054D01*
X80963649Y-103979683D01*
X80967166Y-103993724D01*
X80969290Y-104008042D01*
X80970000Y-104022500D01*
X80970000Y-104317500D01*
X80969290Y-104331958D01*
X80967166Y-104346276D01*
X80963649Y-104360317D01*
X80958772Y-104373946D01*
X80952583Y-104387031D01*
X80945142Y-104399447D01*
X80936519Y-104411073D01*
X80926798Y-104421798D01*
X80916073Y-104431519D01*
X80904447Y-104440142D01*
X80892031Y-104447583D01*
X80878946Y-104453772D01*
X80865317Y-104458649D01*
X80851276Y-104462166D01*
X80836958Y-104464290D01*
X80822500Y-104465000D01*
X80477500Y-104465000D01*
X80463042Y-104464290D01*
X80448724Y-104462166D01*
X80434683Y-104458649D01*
X80421054Y-104453772D01*
X80407969Y-104447583D01*
X80395553Y-104440142D01*
X80383927Y-104431519D01*
X80373202Y-104421798D01*
X80363481Y-104411073D01*
X80354858Y-104399447D01*
X80347417Y-104387031D01*
X80341228Y-104373946D01*
X80336351Y-104360317D01*
X80332834Y-104346276D01*
X80330710Y-104331958D01*
X80330000Y-104317500D01*
X80330000Y-104022500D01*
X80330710Y-104008042D01*
X80332834Y-103993724D01*
X80336351Y-103979683D01*
X80341228Y-103966054D01*
X80347417Y-103952969D01*
X80354858Y-103940553D01*
X80363481Y-103928927D01*
X80373202Y-103918202D01*
X80383927Y-103908481D01*
X80395553Y-103899858D01*
X80407969Y-103892417D01*
X80421054Y-103886228D01*
X80434683Y-103881351D01*
X80448724Y-103877834D01*
X80463042Y-103875710D01*
X80477500Y-103875000D01*
X80822500Y-103875000D01*
X80836958Y-103875710D01*
G37*
G04 #@! TD.AperFunction*
G04 #@! TA.AperFunction,SMDPad,CuDef*
G36*
X80836958Y-100770710D02*
G01*
X80851276Y-100772834D01*
X80865317Y-100776351D01*
X80878946Y-100781228D01*
X80892031Y-100787417D01*
X80904447Y-100794858D01*
X80916073Y-100803481D01*
X80926798Y-100813202D01*
X80936519Y-100823927D01*
X80945142Y-100835553D01*
X80952583Y-100847969D01*
X80958772Y-100861054D01*
X80963649Y-100874683D01*
X80967166Y-100888724D01*
X80969290Y-100903042D01*
X80970000Y-100917500D01*
X80970000Y-101212500D01*
X80969290Y-101226958D01*
X80967166Y-101241276D01*
X80963649Y-101255317D01*
X80958772Y-101268946D01*
X80952583Y-101282031D01*
X80945142Y-101294447D01*
X80936519Y-101306073D01*
X80926798Y-101316798D01*
X80916073Y-101326519D01*
X80904447Y-101335142D01*
X80892031Y-101342583D01*
X80878946Y-101348772D01*
X80865317Y-101353649D01*
X80851276Y-101357166D01*
X80836958Y-101359290D01*
X80822500Y-101360000D01*
X80477500Y-101360000D01*
X80463042Y-101359290D01*
X80448724Y-101357166D01*
X80434683Y-101353649D01*
X80421054Y-101348772D01*
X80407969Y-101342583D01*
X80395553Y-101335142D01*
X80383927Y-101326519D01*
X80373202Y-101316798D01*
X80363481Y-101306073D01*
X80354858Y-101294447D01*
X80347417Y-101282031D01*
X80341228Y-101268946D01*
X80336351Y-101255317D01*
X80332834Y-101241276D01*
X80330710Y-101226958D01*
X80330000Y-101212500D01*
X80330000Y-100917500D01*
X80330710Y-100903042D01*
X80332834Y-100888724D01*
X80336351Y-100874683D01*
X80341228Y-100861054D01*
X80347417Y-100847969D01*
X80354858Y-100835553D01*
X80363481Y-100823927D01*
X80373202Y-100813202D01*
X80383927Y-100803481D01*
X80395553Y-100794858D01*
X80407969Y-100787417D01*
X80421054Y-100781228D01*
X80434683Y-100776351D01*
X80448724Y-100772834D01*
X80463042Y-100770710D01*
X80477500Y-100770000D01*
X80822500Y-100770000D01*
X80836958Y-100770710D01*
G37*
G04 #@! TD.AperFunction*
G04 #@! TA.AperFunction,SMDPad,CuDef*
G36*
X80836958Y-101740710D02*
G01*
X80851276Y-101742834D01*
X80865317Y-101746351D01*
X80878946Y-101751228D01*
X80892031Y-101757417D01*
X80904447Y-101764858D01*
X80916073Y-101773481D01*
X80926798Y-101783202D01*
X80936519Y-101793927D01*
X80945142Y-101805553D01*
X80952583Y-101817969D01*
X80958772Y-101831054D01*
X80963649Y-101844683D01*
X80967166Y-101858724D01*
X80969290Y-101873042D01*
X80970000Y-101887500D01*
X80970000Y-102182500D01*
X80969290Y-102196958D01*
X80967166Y-102211276D01*
X80963649Y-102225317D01*
X80958772Y-102238946D01*
X80952583Y-102252031D01*
X80945142Y-102264447D01*
X80936519Y-102276073D01*
X80926798Y-102286798D01*
X80916073Y-102296519D01*
X80904447Y-102305142D01*
X80892031Y-102312583D01*
X80878946Y-102318772D01*
X80865317Y-102323649D01*
X80851276Y-102327166D01*
X80836958Y-102329290D01*
X80822500Y-102330000D01*
X80477500Y-102330000D01*
X80463042Y-102329290D01*
X80448724Y-102327166D01*
X80434683Y-102323649D01*
X80421054Y-102318772D01*
X80407969Y-102312583D01*
X80395553Y-102305142D01*
X80383927Y-102296519D01*
X80373202Y-102286798D01*
X80363481Y-102276073D01*
X80354858Y-102264447D01*
X80347417Y-102252031D01*
X80341228Y-102238946D01*
X80336351Y-102225317D01*
X80332834Y-102211276D01*
X80330710Y-102196958D01*
X80330000Y-102182500D01*
X80330000Y-101887500D01*
X80330710Y-101873042D01*
X80332834Y-101858724D01*
X80336351Y-101844683D01*
X80341228Y-101831054D01*
X80347417Y-101817969D01*
X80354858Y-101805553D01*
X80363481Y-101793927D01*
X80373202Y-101783202D01*
X80383927Y-101773481D01*
X80395553Y-101764858D01*
X80407969Y-101757417D01*
X80421054Y-101751228D01*
X80434683Y-101746351D01*
X80448724Y-101742834D01*
X80463042Y-101740710D01*
X80477500Y-101740000D01*
X80822500Y-101740000D01*
X80836958Y-101740710D01*
G37*
G04 #@! TD.AperFunction*
G04 #@! TA.AperFunction,SMDPad,CuDef*
G36*
X80836958Y-108170710D02*
G01*
X80851276Y-108172834D01*
X80865317Y-108176351D01*
X80878946Y-108181228D01*
X80892031Y-108187417D01*
X80904447Y-108194858D01*
X80916073Y-108203481D01*
X80926798Y-108213202D01*
X80936519Y-108223927D01*
X80945142Y-108235553D01*
X80952583Y-108247969D01*
X80958772Y-108261054D01*
X80963649Y-108274683D01*
X80967166Y-108288724D01*
X80969290Y-108303042D01*
X80970000Y-108317500D01*
X80970000Y-108612500D01*
X80969290Y-108626958D01*
X80967166Y-108641276D01*
X80963649Y-108655317D01*
X80958772Y-108668946D01*
X80952583Y-108682031D01*
X80945142Y-108694447D01*
X80936519Y-108706073D01*
X80926798Y-108716798D01*
X80916073Y-108726519D01*
X80904447Y-108735142D01*
X80892031Y-108742583D01*
X80878946Y-108748772D01*
X80865317Y-108753649D01*
X80851276Y-108757166D01*
X80836958Y-108759290D01*
X80822500Y-108760000D01*
X80477500Y-108760000D01*
X80463042Y-108759290D01*
X80448724Y-108757166D01*
X80434683Y-108753649D01*
X80421054Y-108748772D01*
X80407969Y-108742583D01*
X80395553Y-108735142D01*
X80383927Y-108726519D01*
X80373202Y-108716798D01*
X80363481Y-108706073D01*
X80354858Y-108694447D01*
X80347417Y-108682031D01*
X80341228Y-108668946D01*
X80336351Y-108655317D01*
X80332834Y-108641276D01*
X80330710Y-108626958D01*
X80330000Y-108612500D01*
X80330000Y-108317500D01*
X80330710Y-108303042D01*
X80332834Y-108288724D01*
X80336351Y-108274683D01*
X80341228Y-108261054D01*
X80347417Y-108247969D01*
X80354858Y-108235553D01*
X80363481Y-108223927D01*
X80373202Y-108213202D01*
X80383927Y-108203481D01*
X80395553Y-108194858D01*
X80407969Y-108187417D01*
X80421054Y-108181228D01*
X80434683Y-108176351D01*
X80448724Y-108172834D01*
X80463042Y-108170710D01*
X80477500Y-108170000D01*
X80822500Y-108170000D01*
X80836958Y-108170710D01*
G37*
G04 #@! TD.AperFunction*
G04 #@! TA.AperFunction,SMDPad,CuDef*
G36*
X80836958Y-109140710D02*
G01*
X80851276Y-109142834D01*
X80865317Y-109146351D01*
X80878946Y-109151228D01*
X80892031Y-109157417D01*
X80904447Y-109164858D01*
X80916073Y-109173481D01*
X80926798Y-109183202D01*
X80936519Y-109193927D01*
X80945142Y-109205553D01*
X80952583Y-109217969D01*
X80958772Y-109231054D01*
X80963649Y-109244683D01*
X80967166Y-109258724D01*
X80969290Y-109273042D01*
X80970000Y-109287500D01*
X80970000Y-109582500D01*
X80969290Y-109596958D01*
X80967166Y-109611276D01*
X80963649Y-109625317D01*
X80958772Y-109638946D01*
X80952583Y-109652031D01*
X80945142Y-109664447D01*
X80936519Y-109676073D01*
X80926798Y-109686798D01*
X80916073Y-109696519D01*
X80904447Y-109705142D01*
X80892031Y-109712583D01*
X80878946Y-109718772D01*
X80865317Y-109723649D01*
X80851276Y-109727166D01*
X80836958Y-109729290D01*
X80822500Y-109730000D01*
X80477500Y-109730000D01*
X80463042Y-109729290D01*
X80448724Y-109727166D01*
X80434683Y-109723649D01*
X80421054Y-109718772D01*
X80407969Y-109712583D01*
X80395553Y-109705142D01*
X80383927Y-109696519D01*
X80373202Y-109686798D01*
X80363481Y-109676073D01*
X80354858Y-109664447D01*
X80347417Y-109652031D01*
X80341228Y-109638946D01*
X80336351Y-109625317D01*
X80332834Y-109611276D01*
X80330710Y-109596958D01*
X80330000Y-109582500D01*
X80330000Y-109287500D01*
X80330710Y-109273042D01*
X80332834Y-109258724D01*
X80336351Y-109244683D01*
X80341228Y-109231054D01*
X80347417Y-109217969D01*
X80354858Y-109205553D01*
X80363481Y-109193927D01*
X80373202Y-109183202D01*
X80383927Y-109173481D01*
X80395553Y-109164858D01*
X80407969Y-109157417D01*
X80421054Y-109151228D01*
X80434683Y-109146351D01*
X80448724Y-109142834D01*
X80463042Y-109140710D01*
X80477500Y-109140000D01*
X80822500Y-109140000D01*
X80836958Y-109140710D01*
G37*
G04 #@! TD.AperFunction*
G04 #@! TA.AperFunction,SMDPad,CuDef*
G36*
X80836958Y-106070710D02*
G01*
X80851276Y-106072834D01*
X80865317Y-106076351D01*
X80878946Y-106081228D01*
X80892031Y-106087417D01*
X80904447Y-106094858D01*
X80916073Y-106103481D01*
X80926798Y-106113202D01*
X80936519Y-106123927D01*
X80945142Y-106135553D01*
X80952583Y-106147969D01*
X80958772Y-106161054D01*
X80963649Y-106174683D01*
X80967166Y-106188724D01*
X80969290Y-106203042D01*
X80970000Y-106217500D01*
X80970000Y-106512500D01*
X80969290Y-106526958D01*
X80967166Y-106541276D01*
X80963649Y-106555317D01*
X80958772Y-106568946D01*
X80952583Y-106582031D01*
X80945142Y-106594447D01*
X80936519Y-106606073D01*
X80926798Y-106616798D01*
X80916073Y-106626519D01*
X80904447Y-106635142D01*
X80892031Y-106642583D01*
X80878946Y-106648772D01*
X80865317Y-106653649D01*
X80851276Y-106657166D01*
X80836958Y-106659290D01*
X80822500Y-106660000D01*
X80477500Y-106660000D01*
X80463042Y-106659290D01*
X80448724Y-106657166D01*
X80434683Y-106653649D01*
X80421054Y-106648772D01*
X80407969Y-106642583D01*
X80395553Y-106635142D01*
X80383927Y-106626519D01*
X80373202Y-106616798D01*
X80363481Y-106606073D01*
X80354858Y-106594447D01*
X80347417Y-106582031D01*
X80341228Y-106568946D01*
X80336351Y-106555317D01*
X80332834Y-106541276D01*
X80330710Y-106526958D01*
X80330000Y-106512500D01*
X80330000Y-106217500D01*
X80330710Y-106203042D01*
X80332834Y-106188724D01*
X80336351Y-106174683D01*
X80341228Y-106161054D01*
X80347417Y-106147969D01*
X80354858Y-106135553D01*
X80363481Y-106123927D01*
X80373202Y-106113202D01*
X80383927Y-106103481D01*
X80395553Y-106094858D01*
X80407969Y-106087417D01*
X80421054Y-106081228D01*
X80434683Y-106076351D01*
X80448724Y-106072834D01*
X80463042Y-106070710D01*
X80477500Y-106070000D01*
X80822500Y-106070000D01*
X80836958Y-106070710D01*
G37*
G04 #@! TD.AperFunction*
G04 #@! TA.AperFunction,SMDPad,CuDef*
G36*
X80836958Y-107040710D02*
G01*
X80851276Y-107042834D01*
X80865317Y-107046351D01*
X80878946Y-107051228D01*
X80892031Y-107057417D01*
X80904447Y-107064858D01*
X80916073Y-107073481D01*
X80926798Y-107083202D01*
X80936519Y-107093927D01*
X80945142Y-107105553D01*
X80952583Y-107117969D01*
X80958772Y-107131054D01*
X80963649Y-107144683D01*
X80967166Y-107158724D01*
X80969290Y-107173042D01*
X80970000Y-107187500D01*
X80970000Y-107482500D01*
X80969290Y-107496958D01*
X80967166Y-107511276D01*
X80963649Y-107525317D01*
X80958772Y-107538946D01*
X80952583Y-107552031D01*
X80945142Y-107564447D01*
X80936519Y-107576073D01*
X80926798Y-107586798D01*
X80916073Y-107596519D01*
X80904447Y-107605142D01*
X80892031Y-107612583D01*
X80878946Y-107618772D01*
X80865317Y-107623649D01*
X80851276Y-107627166D01*
X80836958Y-107629290D01*
X80822500Y-107630000D01*
X80477500Y-107630000D01*
X80463042Y-107629290D01*
X80448724Y-107627166D01*
X80434683Y-107623649D01*
X80421054Y-107618772D01*
X80407969Y-107612583D01*
X80395553Y-107605142D01*
X80383927Y-107596519D01*
X80373202Y-107586798D01*
X80363481Y-107576073D01*
X80354858Y-107564447D01*
X80347417Y-107552031D01*
X80341228Y-107538946D01*
X80336351Y-107525317D01*
X80332834Y-107511276D01*
X80330710Y-107496958D01*
X80330000Y-107482500D01*
X80330000Y-107187500D01*
X80330710Y-107173042D01*
X80332834Y-107158724D01*
X80336351Y-107144683D01*
X80341228Y-107131054D01*
X80347417Y-107117969D01*
X80354858Y-107105553D01*
X80363481Y-107093927D01*
X80373202Y-107083202D01*
X80383927Y-107073481D01*
X80395553Y-107064858D01*
X80407969Y-107057417D01*
X80421054Y-107051228D01*
X80434683Y-107046351D01*
X80448724Y-107042834D01*
X80463042Y-107040710D01*
X80477500Y-107040000D01*
X80822500Y-107040000D01*
X80836958Y-107040710D01*
G37*
G04 #@! TD.AperFunction*
G04 #@! TA.AperFunction,SMDPad,CuDef*
G36*
X82696958Y-110180710D02*
G01*
X82711276Y-110182834D01*
X82725317Y-110186351D01*
X82738946Y-110191228D01*
X82752031Y-110197417D01*
X82764447Y-110204858D01*
X82776073Y-110213481D01*
X82786798Y-110223202D01*
X82796519Y-110233927D01*
X82805142Y-110245553D01*
X82812583Y-110257969D01*
X82818772Y-110271054D01*
X82823649Y-110284683D01*
X82827166Y-110298724D01*
X82829290Y-110313042D01*
X82830000Y-110327500D01*
X82830000Y-110672500D01*
X82829290Y-110686958D01*
X82827166Y-110701276D01*
X82823649Y-110715317D01*
X82818772Y-110728946D01*
X82812583Y-110742031D01*
X82805142Y-110754447D01*
X82796519Y-110766073D01*
X82786798Y-110776798D01*
X82776073Y-110786519D01*
X82764447Y-110795142D01*
X82752031Y-110802583D01*
X82738946Y-110808772D01*
X82725317Y-110813649D01*
X82711276Y-110817166D01*
X82696958Y-110819290D01*
X82682500Y-110820000D01*
X82387500Y-110820000D01*
X82373042Y-110819290D01*
X82358724Y-110817166D01*
X82344683Y-110813649D01*
X82331054Y-110808772D01*
X82317969Y-110802583D01*
X82305553Y-110795142D01*
X82293927Y-110786519D01*
X82283202Y-110776798D01*
X82273481Y-110766073D01*
X82264858Y-110754447D01*
X82257417Y-110742031D01*
X82251228Y-110728946D01*
X82246351Y-110715317D01*
X82242834Y-110701276D01*
X82240710Y-110686958D01*
X82240000Y-110672500D01*
X82240000Y-110327500D01*
X82240710Y-110313042D01*
X82242834Y-110298724D01*
X82246351Y-110284683D01*
X82251228Y-110271054D01*
X82257417Y-110257969D01*
X82264858Y-110245553D01*
X82273481Y-110233927D01*
X82283202Y-110223202D01*
X82293927Y-110213481D01*
X82305553Y-110204858D01*
X82317969Y-110197417D01*
X82331054Y-110191228D01*
X82344683Y-110186351D01*
X82358724Y-110182834D01*
X82373042Y-110180710D01*
X82387500Y-110180000D01*
X82682500Y-110180000D01*
X82696958Y-110180710D01*
G37*
G04 #@! TD.AperFunction*
G04 #@! TA.AperFunction,SMDPad,CuDef*
G36*
X81726958Y-110180710D02*
G01*
X81741276Y-110182834D01*
X81755317Y-110186351D01*
X81768946Y-110191228D01*
X81782031Y-110197417D01*
X81794447Y-110204858D01*
X81806073Y-110213481D01*
X81816798Y-110223202D01*
X81826519Y-110233927D01*
X81835142Y-110245553D01*
X81842583Y-110257969D01*
X81848772Y-110271054D01*
X81853649Y-110284683D01*
X81857166Y-110298724D01*
X81859290Y-110313042D01*
X81860000Y-110327500D01*
X81860000Y-110672500D01*
X81859290Y-110686958D01*
X81857166Y-110701276D01*
X81853649Y-110715317D01*
X81848772Y-110728946D01*
X81842583Y-110742031D01*
X81835142Y-110754447D01*
X81826519Y-110766073D01*
X81816798Y-110776798D01*
X81806073Y-110786519D01*
X81794447Y-110795142D01*
X81782031Y-110802583D01*
X81768946Y-110808772D01*
X81755317Y-110813649D01*
X81741276Y-110817166D01*
X81726958Y-110819290D01*
X81712500Y-110820000D01*
X81417500Y-110820000D01*
X81403042Y-110819290D01*
X81388724Y-110817166D01*
X81374683Y-110813649D01*
X81361054Y-110808772D01*
X81347969Y-110802583D01*
X81335553Y-110795142D01*
X81323927Y-110786519D01*
X81313202Y-110776798D01*
X81303481Y-110766073D01*
X81294858Y-110754447D01*
X81287417Y-110742031D01*
X81281228Y-110728946D01*
X81276351Y-110715317D01*
X81272834Y-110701276D01*
X81270710Y-110686958D01*
X81270000Y-110672500D01*
X81270000Y-110327500D01*
X81270710Y-110313042D01*
X81272834Y-110298724D01*
X81276351Y-110284683D01*
X81281228Y-110271054D01*
X81287417Y-110257969D01*
X81294858Y-110245553D01*
X81303481Y-110233927D01*
X81313202Y-110223202D01*
X81323927Y-110213481D01*
X81335553Y-110204858D01*
X81347969Y-110197417D01*
X81361054Y-110191228D01*
X81374683Y-110186351D01*
X81388724Y-110182834D01*
X81403042Y-110180710D01*
X81417500Y-110180000D01*
X81712500Y-110180000D01*
X81726958Y-110180710D01*
G37*
G04 #@! TD.AperFunction*
G04 #@! TA.AperFunction,SMDPad,CuDef*
G36*
X85936958Y-106070710D02*
G01*
X85951276Y-106072834D01*
X85965317Y-106076351D01*
X85978946Y-106081228D01*
X85992031Y-106087417D01*
X86004447Y-106094858D01*
X86016073Y-106103481D01*
X86026798Y-106113202D01*
X86036519Y-106123927D01*
X86045142Y-106135553D01*
X86052583Y-106147969D01*
X86058772Y-106161054D01*
X86063649Y-106174683D01*
X86067166Y-106188724D01*
X86069290Y-106203042D01*
X86070000Y-106217500D01*
X86070000Y-106512500D01*
X86069290Y-106526958D01*
X86067166Y-106541276D01*
X86063649Y-106555317D01*
X86058772Y-106568946D01*
X86052583Y-106582031D01*
X86045142Y-106594447D01*
X86036519Y-106606073D01*
X86026798Y-106616798D01*
X86016073Y-106626519D01*
X86004447Y-106635142D01*
X85992031Y-106642583D01*
X85978946Y-106648772D01*
X85965317Y-106653649D01*
X85951276Y-106657166D01*
X85936958Y-106659290D01*
X85922500Y-106660000D01*
X85577500Y-106660000D01*
X85563042Y-106659290D01*
X85548724Y-106657166D01*
X85534683Y-106653649D01*
X85521054Y-106648772D01*
X85507969Y-106642583D01*
X85495553Y-106635142D01*
X85483927Y-106626519D01*
X85473202Y-106616798D01*
X85463481Y-106606073D01*
X85454858Y-106594447D01*
X85447417Y-106582031D01*
X85441228Y-106568946D01*
X85436351Y-106555317D01*
X85432834Y-106541276D01*
X85430710Y-106526958D01*
X85430000Y-106512500D01*
X85430000Y-106217500D01*
X85430710Y-106203042D01*
X85432834Y-106188724D01*
X85436351Y-106174683D01*
X85441228Y-106161054D01*
X85447417Y-106147969D01*
X85454858Y-106135553D01*
X85463481Y-106123927D01*
X85473202Y-106113202D01*
X85483927Y-106103481D01*
X85495553Y-106094858D01*
X85507969Y-106087417D01*
X85521054Y-106081228D01*
X85534683Y-106076351D01*
X85548724Y-106072834D01*
X85563042Y-106070710D01*
X85577500Y-106070000D01*
X85922500Y-106070000D01*
X85936958Y-106070710D01*
G37*
G04 #@! TD.AperFunction*
G04 #@! TA.AperFunction,SMDPad,CuDef*
G36*
X85936958Y-107040710D02*
G01*
X85951276Y-107042834D01*
X85965317Y-107046351D01*
X85978946Y-107051228D01*
X85992031Y-107057417D01*
X86004447Y-107064858D01*
X86016073Y-107073481D01*
X86026798Y-107083202D01*
X86036519Y-107093927D01*
X86045142Y-107105553D01*
X86052583Y-107117969D01*
X86058772Y-107131054D01*
X86063649Y-107144683D01*
X86067166Y-107158724D01*
X86069290Y-107173042D01*
X86070000Y-107187500D01*
X86070000Y-107482500D01*
X86069290Y-107496958D01*
X86067166Y-107511276D01*
X86063649Y-107525317D01*
X86058772Y-107538946D01*
X86052583Y-107552031D01*
X86045142Y-107564447D01*
X86036519Y-107576073D01*
X86026798Y-107586798D01*
X86016073Y-107596519D01*
X86004447Y-107605142D01*
X85992031Y-107612583D01*
X85978946Y-107618772D01*
X85965317Y-107623649D01*
X85951276Y-107627166D01*
X85936958Y-107629290D01*
X85922500Y-107630000D01*
X85577500Y-107630000D01*
X85563042Y-107629290D01*
X85548724Y-107627166D01*
X85534683Y-107623649D01*
X85521054Y-107618772D01*
X85507969Y-107612583D01*
X85495553Y-107605142D01*
X85483927Y-107596519D01*
X85473202Y-107586798D01*
X85463481Y-107576073D01*
X85454858Y-107564447D01*
X85447417Y-107552031D01*
X85441228Y-107538946D01*
X85436351Y-107525317D01*
X85432834Y-107511276D01*
X85430710Y-107496958D01*
X85430000Y-107482500D01*
X85430000Y-107187500D01*
X85430710Y-107173042D01*
X85432834Y-107158724D01*
X85436351Y-107144683D01*
X85441228Y-107131054D01*
X85447417Y-107117969D01*
X85454858Y-107105553D01*
X85463481Y-107093927D01*
X85473202Y-107083202D01*
X85483927Y-107073481D01*
X85495553Y-107064858D01*
X85507969Y-107057417D01*
X85521054Y-107051228D01*
X85534683Y-107046351D01*
X85548724Y-107042834D01*
X85563042Y-107040710D01*
X85577500Y-107040000D01*
X85922500Y-107040000D01*
X85936958Y-107040710D01*
G37*
G04 #@! TD.AperFunction*
G04 #@! TA.AperFunction,SMDPad,CuDef*
G36*
X85936958Y-102905710D02*
G01*
X85951276Y-102907834D01*
X85965317Y-102911351D01*
X85978946Y-102916228D01*
X85992031Y-102922417D01*
X86004447Y-102929858D01*
X86016073Y-102938481D01*
X86026798Y-102948202D01*
X86036519Y-102958927D01*
X86045142Y-102970553D01*
X86052583Y-102982969D01*
X86058772Y-102996054D01*
X86063649Y-103009683D01*
X86067166Y-103023724D01*
X86069290Y-103038042D01*
X86070000Y-103052500D01*
X86070000Y-103347500D01*
X86069290Y-103361958D01*
X86067166Y-103376276D01*
X86063649Y-103390317D01*
X86058772Y-103403946D01*
X86052583Y-103417031D01*
X86045142Y-103429447D01*
X86036519Y-103441073D01*
X86026798Y-103451798D01*
X86016073Y-103461519D01*
X86004447Y-103470142D01*
X85992031Y-103477583D01*
X85978946Y-103483772D01*
X85965317Y-103488649D01*
X85951276Y-103492166D01*
X85936958Y-103494290D01*
X85922500Y-103495000D01*
X85577500Y-103495000D01*
X85563042Y-103494290D01*
X85548724Y-103492166D01*
X85534683Y-103488649D01*
X85521054Y-103483772D01*
X85507969Y-103477583D01*
X85495553Y-103470142D01*
X85483927Y-103461519D01*
X85473202Y-103451798D01*
X85463481Y-103441073D01*
X85454858Y-103429447D01*
X85447417Y-103417031D01*
X85441228Y-103403946D01*
X85436351Y-103390317D01*
X85432834Y-103376276D01*
X85430710Y-103361958D01*
X85430000Y-103347500D01*
X85430000Y-103052500D01*
X85430710Y-103038042D01*
X85432834Y-103023724D01*
X85436351Y-103009683D01*
X85441228Y-102996054D01*
X85447417Y-102982969D01*
X85454858Y-102970553D01*
X85463481Y-102958927D01*
X85473202Y-102948202D01*
X85483927Y-102938481D01*
X85495553Y-102929858D01*
X85507969Y-102922417D01*
X85521054Y-102916228D01*
X85534683Y-102911351D01*
X85548724Y-102907834D01*
X85563042Y-102905710D01*
X85577500Y-102905000D01*
X85922500Y-102905000D01*
X85936958Y-102905710D01*
G37*
G04 #@! TD.AperFunction*
G04 #@! TA.AperFunction,SMDPad,CuDef*
G36*
X85936958Y-103875710D02*
G01*
X85951276Y-103877834D01*
X85965317Y-103881351D01*
X85978946Y-103886228D01*
X85992031Y-103892417D01*
X86004447Y-103899858D01*
X86016073Y-103908481D01*
X86026798Y-103918202D01*
X86036519Y-103928927D01*
X86045142Y-103940553D01*
X86052583Y-103952969D01*
X86058772Y-103966054D01*
X86063649Y-103979683D01*
X86067166Y-103993724D01*
X86069290Y-104008042D01*
X86070000Y-104022500D01*
X86070000Y-104317500D01*
X86069290Y-104331958D01*
X86067166Y-104346276D01*
X86063649Y-104360317D01*
X86058772Y-104373946D01*
X86052583Y-104387031D01*
X86045142Y-104399447D01*
X86036519Y-104411073D01*
X86026798Y-104421798D01*
X86016073Y-104431519D01*
X86004447Y-104440142D01*
X85992031Y-104447583D01*
X85978946Y-104453772D01*
X85965317Y-104458649D01*
X85951276Y-104462166D01*
X85936958Y-104464290D01*
X85922500Y-104465000D01*
X85577500Y-104465000D01*
X85563042Y-104464290D01*
X85548724Y-104462166D01*
X85534683Y-104458649D01*
X85521054Y-104453772D01*
X85507969Y-104447583D01*
X85495553Y-104440142D01*
X85483927Y-104431519D01*
X85473202Y-104421798D01*
X85463481Y-104411073D01*
X85454858Y-104399447D01*
X85447417Y-104387031D01*
X85441228Y-104373946D01*
X85436351Y-104360317D01*
X85432834Y-104346276D01*
X85430710Y-104331958D01*
X85430000Y-104317500D01*
X85430000Y-104022500D01*
X85430710Y-104008042D01*
X85432834Y-103993724D01*
X85436351Y-103979683D01*
X85441228Y-103966054D01*
X85447417Y-103952969D01*
X85454858Y-103940553D01*
X85463481Y-103928927D01*
X85473202Y-103918202D01*
X85483927Y-103908481D01*
X85495553Y-103899858D01*
X85507969Y-103892417D01*
X85521054Y-103886228D01*
X85534683Y-103881351D01*
X85548724Y-103877834D01*
X85563042Y-103875710D01*
X85577500Y-103875000D01*
X85922500Y-103875000D01*
X85936958Y-103875710D01*
G37*
G04 #@! TD.AperFunction*
G04 #@! TA.AperFunction,SMDPad,CuDef*
G36*
X85936958Y-100770710D02*
G01*
X85951276Y-100772834D01*
X85965317Y-100776351D01*
X85978946Y-100781228D01*
X85992031Y-100787417D01*
X86004447Y-100794858D01*
X86016073Y-100803481D01*
X86026798Y-100813202D01*
X86036519Y-100823927D01*
X86045142Y-100835553D01*
X86052583Y-100847969D01*
X86058772Y-100861054D01*
X86063649Y-100874683D01*
X86067166Y-100888724D01*
X86069290Y-100903042D01*
X86070000Y-100917500D01*
X86070000Y-101212500D01*
X86069290Y-101226958D01*
X86067166Y-101241276D01*
X86063649Y-101255317D01*
X86058772Y-101268946D01*
X86052583Y-101282031D01*
X86045142Y-101294447D01*
X86036519Y-101306073D01*
X86026798Y-101316798D01*
X86016073Y-101326519D01*
X86004447Y-101335142D01*
X85992031Y-101342583D01*
X85978946Y-101348772D01*
X85965317Y-101353649D01*
X85951276Y-101357166D01*
X85936958Y-101359290D01*
X85922500Y-101360000D01*
X85577500Y-101360000D01*
X85563042Y-101359290D01*
X85548724Y-101357166D01*
X85534683Y-101353649D01*
X85521054Y-101348772D01*
X85507969Y-101342583D01*
X85495553Y-101335142D01*
X85483927Y-101326519D01*
X85473202Y-101316798D01*
X85463481Y-101306073D01*
X85454858Y-101294447D01*
X85447417Y-101282031D01*
X85441228Y-101268946D01*
X85436351Y-101255317D01*
X85432834Y-101241276D01*
X85430710Y-101226958D01*
X85430000Y-101212500D01*
X85430000Y-100917500D01*
X85430710Y-100903042D01*
X85432834Y-100888724D01*
X85436351Y-100874683D01*
X85441228Y-100861054D01*
X85447417Y-100847969D01*
X85454858Y-100835553D01*
X85463481Y-100823927D01*
X85473202Y-100813202D01*
X85483927Y-100803481D01*
X85495553Y-100794858D01*
X85507969Y-100787417D01*
X85521054Y-100781228D01*
X85534683Y-100776351D01*
X85548724Y-100772834D01*
X85563042Y-100770710D01*
X85577500Y-100770000D01*
X85922500Y-100770000D01*
X85936958Y-100770710D01*
G37*
G04 #@! TD.AperFunction*
G04 #@! TA.AperFunction,SMDPad,CuDef*
G36*
X85936958Y-101740710D02*
G01*
X85951276Y-101742834D01*
X85965317Y-101746351D01*
X85978946Y-101751228D01*
X85992031Y-101757417D01*
X86004447Y-101764858D01*
X86016073Y-101773481D01*
X86026798Y-101783202D01*
X86036519Y-101793927D01*
X86045142Y-101805553D01*
X86052583Y-101817969D01*
X86058772Y-101831054D01*
X86063649Y-101844683D01*
X86067166Y-101858724D01*
X86069290Y-101873042D01*
X86070000Y-101887500D01*
X86070000Y-102182500D01*
X86069290Y-102196958D01*
X86067166Y-102211276D01*
X86063649Y-102225317D01*
X86058772Y-102238946D01*
X86052583Y-102252031D01*
X86045142Y-102264447D01*
X86036519Y-102276073D01*
X86026798Y-102286798D01*
X86016073Y-102296519D01*
X86004447Y-102305142D01*
X85992031Y-102312583D01*
X85978946Y-102318772D01*
X85965317Y-102323649D01*
X85951276Y-102327166D01*
X85936958Y-102329290D01*
X85922500Y-102330000D01*
X85577500Y-102330000D01*
X85563042Y-102329290D01*
X85548724Y-102327166D01*
X85534683Y-102323649D01*
X85521054Y-102318772D01*
X85507969Y-102312583D01*
X85495553Y-102305142D01*
X85483927Y-102296519D01*
X85473202Y-102286798D01*
X85463481Y-102276073D01*
X85454858Y-102264447D01*
X85447417Y-102252031D01*
X85441228Y-102238946D01*
X85436351Y-102225317D01*
X85432834Y-102211276D01*
X85430710Y-102196958D01*
X85430000Y-102182500D01*
X85430000Y-101887500D01*
X85430710Y-101873042D01*
X85432834Y-101858724D01*
X85436351Y-101844683D01*
X85441228Y-101831054D01*
X85447417Y-101817969D01*
X85454858Y-101805553D01*
X85463481Y-101793927D01*
X85473202Y-101783202D01*
X85483927Y-101773481D01*
X85495553Y-101764858D01*
X85507969Y-101757417D01*
X85521054Y-101751228D01*
X85534683Y-101746351D01*
X85548724Y-101742834D01*
X85563042Y-101740710D01*
X85577500Y-101740000D01*
X85922500Y-101740000D01*
X85936958Y-101740710D01*
G37*
G04 #@! TD.AperFunction*
G04 #@! TA.AperFunction,SMDPad,CuDef*
G36*
X82696958Y-99680710D02*
G01*
X82711276Y-99682834D01*
X82725317Y-99686351D01*
X82738946Y-99691228D01*
X82752031Y-99697417D01*
X82764447Y-99704858D01*
X82776073Y-99713481D01*
X82786798Y-99723202D01*
X82796519Y-99733927D01*
X82805142Y-99745553D01*
X82812583Y-99757969D01*
X82818772Y-99771054D01*
X82823649Y-99784683D01*
X82827166Y-99798724D01*
X82829290Y-99813042D01*
X82830000Y-99827500D01*
X82830000Y-100172500D01*
X82829290Y-100186958D01*
X82827166Y-100201276D01*
X82823649Y-100215317D01*
X82818772Y-100228946D01*
X82812583Y-100242031D01*
X82805142Y-100254447D01*
X82796519Y-100266073D01*
X82786798Y-100276798D01*
X82776073Y-100286519D01*
X82764447Y-100295142D01*
X82752031Y-100302583D01*
X82738946Y-100308772D01*
X82725317Y-100313649D01*
X82711276Y-100317166D01*
X82696958Y-100319290D01*
X82682500Y-100320000D01*
X82387500Y-100320000D01*
X82373042Y-100319290D01*
X82358724Y-100317166D01*
X82344683Y-100313649D01*
X82331054Y-100308772D01*
X82317969Y-100302583D01*
X82305553Y-100295142D01*
X82293927Y-100286519D01*
X82283202Y-100276798D01*
X82273481Y-100266073D01*
X82264858Y-100254447D01*
X82257417Y-100242031D01*
X82251228Y-100228946D01*
X82246351Y-100215317D01*
X82242834Y-100201276D01*
X82240710Y-100186958D01*
X82240000Y-100172500D01*
X82240000Y-99827500D01*
X82240710Y-99813042D01*
X82242834Y-99798724D01*
X82246351Y-99784683D01*
X82251228Y-99771054D01*
X82257417Y-99757969D01*
X82264858Y-99745553D01*
X82273481Y-99733927D01*
X82283202Y-99723202D01*
X82293927Y-99713481D01*
X82305553Y-99704858D01*
X82317969Y-99697417D01*
X82331054Y-99691228D01*
X82344683Y-99686351D01*
X82358724Y-99682834D01*
X82373042Y-99680710D01*
X82387500Y-99680000D01*
X82682500Y-99680000D01*
X82696958Y-99680710D01*
G37*
G04 #@! TD.AperFunction*
G04 #@! TA.AperFunction,SMDPad,CuDef*
G36*
X81726958Y-99680710D02*
G01*
X81741276Y-99682834D01*
X81755317Y-99686351D01*
X81768946Y-99691228D01*
X81782031Y-99697417D01*
X81794447Y-99704858D01*
X81806073Y-99713481D01*
X81816798Y-99723202D01*
X81826519Y-99733927D01*
X81835142Y-99745553D01*
X81842583Y-99757969D01*
X81848772Y-99771054D01*
X81853649Y-99784683D01*
X81857166Y-99798724D01*
X81859290Y-99813042D01*
X81860000Y-99827500D01*
X81860000Y-100172500D01*
X81859290Y-100186958D01*
X81857166Y-100201276D01*
X81853649Y-100215317D01*
X81848772Y-100228946D01*
X81842583Y-100242031D01*
X81835142Y-100254447D01*
X81826519Y-100266073D01*
X81816798Y-100276798D01*
X81806073Y-100286519D01*
X81794447Y-100295142D01*
X81782031Y-100302583D01*
X81768946Y-100308772D01*
X81755317Y-100313649D01*
X81741276Y-100317166D01*
X81726958Y-100319290D01*
X81712500Y-100320000D01*
X81417500Y-100320000D01*
X81403042Y-100319290D01*
X81388724Y-100317166D01*
X81374683Y-100313649D01*
X81361054Y-100308772D01*
X81347969Y-100302583D01*
X81335553Y-100295142D01*
X81323927Y-100286519D01*
X81313202Y-100276798D01*
X81303481Y-100266073D01*
X81294858Y-100254447D01*
X81287417Y-100242031D01*
X81281228Y-100228946D01*
X81276351Y-100215317D01*
X81272834Y-100201276D01*
X81270710Y-100186958D01*
X81270000Y-100172500D01*
X81270000Y-99827500D01*
X81270710Y-99813042D01*
X81272834Y-99798724D01*
X81276351Y-99784683D01*
X81281228Y-99771054D01*
X81287417Y-99757969D01*
X81294858Y-99745553D01*
X81303481Y-99733927D01*
X81313202Y-99723202D01*
X81323927Y-99713481D01*
X81335553Y-99704858D01*
X81347969Y-99697417D01*
X81361054Y-99691228D01*
X81374683Y-99686351D01*
X81388724Y-99682834D01*
X81403042Y-99680710D01*
X81417500Y-99680000D01*
X81712500Y-99680000D01*
X81726958Y-99680710D01*
G37*
G04 #@! TD.AperFunction*
G04 #@! TA.AperFunction,SMDPad,CuDef*
G36*
X84996958Y-99680710D02*
G01*
X85011276Y-99682834D01*
X85025317Y-99686351D01*
X85038946Y-99691228D01*
X85052031Y-99697417D01*
X85064447Y-99704858D01*
X85076073Y-99713481D01*
X85086798Y-99723202D01*
X85096519Y-99733927D01*
X85105142Y-99745553D01*
X85112583Y-99757969D01*
X85118772Y-99771054D01*
X85123649Y-99784683D01*
X85127166Y-99798724D01*
X85129290Y-99813042D01*
X85130000Y-99827500D01*
X85130000Y-100172500D01*
X85129290Y-100186958D01*
X85127166Y-100201276D01*
X85123649Y-100215317D01*
X85118772Y-100228946D01*
X85112583Y-100242031D01*
X85105142Y-100254447D01*
X85096519Y-100266073D01*
X85086798Y-100276798D01*
X85076073Y-100286519D01*
X85064447Y-100295142D01*
X85052031Y-100302583D01*
X85038946Y-100308772D01*
X85025317Y-100313649D01*
X85011276Y-100317166D01*
X84996958Y-100319290D01*
X84982500Y-100320000D01*
X84687500Y-100320000D01*
X84673042Y-100319290D01*
X84658724Y-100317166D01*
X84644683Y-100313649D01*
X84631054Y-100308772D01*
X84617969Y-100302583D01*
X84605553Y-100295142D01*
X84593927Y-100286519D01*
X84583202Y-100276798D01*
X84573481Y-100266073D01*
X84564858Y-100254447D01*
X84557417Y-100242031D01*
X84551228Y-100228946D01*
X84546351Y-100215317D01*
X84542834Y-100201276D01*
X84540710Y-100186958D01*
X84540000Y-100172500D01*
X84540000Y-99827500D01*
X84540710Y-99813042D01*
X84542834Y-99798724D01*
X84546351Y-99784683D01*
X84551228Y-99771054D01*
X84557417Y-99757969D01*
X84564858Y-99745553D01*
X84573481Y-99733927D01*
X84583202Y-99723202D01*
X84593927Y-99713481D01*
X84605553Y-99704858D01*
X84617969Y-99697417D01*
X84631054Y-99691228D01*
X84644683Y-99686351D01*
X84658724Y-99682834D01*
X84673042Y-99680710D01*
X84687500Y-99680000D01*
X84982500Y-99680000D01*
X84996958Y-99680710D01*
G37*
G04 #@! TD.AperFunction*
G04 #@! TA.AperFunction,SMDPad,CuDef*
G36*
X84026958Y-99680710D02*
G01*
X84041276Y-99682834D01*
X84055317Y-99686351D01*
X84068946Y-99691228D01*
X84082031Y-99697417D01*
X84094447Y-99704858D01*
X84106073Y-99713481D01*
X84116798Y-99723202D01*
X84126519Y-99733927D01*
X84135142Y-99745553D01*
X84142583Y-99757969D01*
X84148772Y-99771054D01*
X84153649Y-99784683D01*
X84157166Y-99798724D01*
X84159290Y-99813042D01*
X84160000Y-99827500D01*
X84160000Y-100172500D01*
X84159290Y-100186958D01*
X84157166Y-100201276D01*
X84153649Y-100215317D01*
X84148772Y-100228946D01*
X84142583Y-100242031D01*
X84135142Y-100254447D01*
X84126519Y-100266073D01*
X84116798Y-100276798D01*
X84106073Y-100286519D01*
X84094447Y-100295142D01*
X84082031Y-100302583D01*
X84068946Y-100308772D01*
X84055317Y-100313649D01*
X84041276Y-100317166D01*
X84026958Y-100319290D01*
X84012500Y-100320000D01*
X83717500Y-100320000D01*
X83703042Y-100319290D01*
X83688724Y-100317166D01*
X83674683Y-100313649D01*
X83661054Y-100308772D01*
X83647969Y-100302583D01*
X83635553Y-100295142D01*
X83623927Y-100286519D01*
X83613202Y-100276798D01*
X83603481Y-100266073D01*
X83594858Y-100254447D01*
X83587417Y-100242031D01*
X83581228Y-100228946D01*
X83576351Y-100215317D01*
X83572834Y-100201276D01*
X83570710Y-100186958D01*
X83570000Y-100172500D01*
X83570000Y-99827500D01*
X83570710Y-99813042D01*
X83572834Y-99798724D01*
X83576351Y-99784683D01*
X83581228Y-99771054D01*
X83587417Y-99757969D01*
X83594858Y-99745553D01*
X83603481Y-99733927D01*
X83613202Y-99723202D01*
X83623927Y-99713481D01*
X83635553Y-99704858D01*
X83647969Y-99697417D01*
X83661054Y-99691228D01*
X83674683Y-99686351D01*
X83688724Y-99682834D01*
X83703042Y-99680710D01*
X83717500Y-99680000D01*
X84012500Y-99680000D01*
X84026958Y-99680710D01*
G37*
G04 #@! TD.AperFunction*
D12*
X83400000Y-101125000D03*
X83250000Y-109200000D03*
X79225000Y-106950000D03*
X80525000Y-110625000D03*
X80575000Y-99925000D03*
X85925000Y-110225000D03*
X84700002Y-108325000D03*
X78825026Y-101425000D03*
X82110000Y-102190000D03*
X79300010Y-104250000D03*
D11*
X85750000Y-107350000D02*
X85750000Y-107335000D01*
X86320010Y-108879990D02*
X86320010Y-107920010D01*
X86320010Y-107920010D02*
X85750000Y-107350000D01*
X85750000Y-109435000D02*
X85765000Y-109435000D01*
X85765000Y-109435000D02*
X86320010Y-108879990D01*
X87600000Y-107925000D02*
X86325000Y-107925000D01*
X88600000Y-108900000D02*
X88575000Y-108900000D01*
X86325000Y-107925000D02*
X86320010Y-107920010D01*
X88575000Y-108900000D02*
X87600000Y-107925000D01*
X84835000Y-110500000D02*
X84900000Y-110500000D01*
X84900000Y-110500000D02*
X84880000Y-110480000D01*
X81622500Y-105250000D02*
X81565000Y-105250000D01*
X82192510Y-105820010D02*
X81622500Y-105250000D01*
X83865000Y-105250000D02*
X83840000Y-105250000D01*
X83269990Y-105820010D02*
X82192510Y-105820010D01*
X83840000Y-105250000D02*
X83269990Y-105820010D01*
X81240000Y-106880000D02*
X80725000Y-106365000D01*
X80725000Y-106365000D02*
X80650000Y-106365000D01*
X81240000Y-107910000D02*
X81240000Y-106880000D01*
X80650000Y-108465000D02*
X80685000Y-108465000D01*
X80685000Y-108465000D02*
X81240000Y-107910000D01*
X82535000Y-100320000D02*
X82535000Y-100000000D01*
X82785010Y-100570010D02*
X82535000Y-100320000D01*
X84584990Y-100570010D02*
X82785010Y-100570010D01*
X84835000Y-100320000D02*
X84584990Y-100570010D01*
X84835000Y-100000000D02*
X84835000Y-100320000D01*
X85750000Y-101065000D02*
X85079980Y-101065000D01*
X81565000Y-105345000D02*
X81565000Y-105250000D01*
X80650000Y-106365000D02*
X80650000Y-106260000D01*
X80650000Y-106260000D02*
X81565000Y-105345000D01*
X85205000Y-108465000D02*
X85200000Y-108460000D01*
X85750000Y-108465000D02*
X85205000Y-108465000D01*
X80655000Y-108465000D02*
X80650000Y-108465000D01*
X81220010Y-109030010D02*
X80655000Y-108465000D01*
X81220010Y-109839990D02*
X81220010Y-109030010D01*
X81019990Y-110040010D02*
X81220010Y-109839990D01*
X82387500Y-110672500D02*
X81989990Y-111070010D01*
X81989990Y-111070010D02*
X81190010Y-111070010D01*
X81190010Y-111070010D02*
X81019990Y-110899990D01*
X81019990Y-110899990D02*
X81019990Y-110040010D01*
X83090010Y-111070010D02*
X82535000Y-110515000D01*
X84309990Y-111070010D02*
X83090010Y-111070010D01*
X82535000Y-110515000D02*
X82535000Y-110500000D01*
X84835000Y-110500000D02*
X84835000Y-110545000D01*
X84835000Y-110545000D02*
X84309990Y-111070010D01*
X85079980Y-101065000D02*
X85075000Y-101075000D01*
X85075000Y-101075000D02*
X84584990Y-100570010D01*
X80615000Y-101065000D02*
X80650000Y-101065000D01*
X80650000Y-103180000D02*
X79970000Y-102500000D01*
X79970000Y-101710000D02*
X80615000Y-101065000D01*
X79970000Y-102500000D02*
X79970000Y-101710000D01*
X80650000Y-103200000D02*
X80650000Y-103180000D01*
X85765000Y-101065000D02*
X85750000Y-101065000D01*
X86320010Y-101620010D02*
X85765000Y-101065000D01*
X86320010Y-102689990D02*
X86320010Y-101620010D01*
X85750000Y-103200000D02*
X85810000Y-103200000D01*
X85810000Y-103200000D02*
X86320010Y-102689990D01*
X85075000Y-102300722D02*
X85075000Y-101075000D01*
X82700722Y-104675000D02*
X85075000Y-102300722D01*
X82125000Y-104675000D02*
X82700722Y-104675000D01*
X81565000Y-105250000D02*
X81565000Y-105235000D01*
X81565000Y-105235000D02*
X82125000Y-104675000D01*
X80670000Y-101065000D02*
X80650000Y-101065000D01*
X81370000Y-101765000D02*
X80670000Y-101065000D01*
X81665000Y-101765000D02*
X81370000Y-101765000D01*
X82110000Y-102190000D02*
X82090000Y-102190000D01*
X82090000Y-102190000D02*
X81665000Y-101765000D01*
X81525000Y-105210000D02*
X81525000Y-102750000D01*
X82085000Y-102190000D02*
X82110000Y-102190000D01*
X81525000Y-102750000D02*
X82085000Y-102190000D01*
X81565000Y-105250000D02*
X81525000Y-105210000D01*
X84835000Y-109118002D02*
X85200001Y-108753001D01*
X85200000Y-108460000D02*
X85200001Y-108046999D01*
X84835000Y-110500000D02*
X84835000Y-109118002D01*
X85180000Y-106615000D02*
X85430000Y-106365000D01*
X85180000Y-108026998D02*
X85180000Y-106615000D01*
X85200001Y-108046999D02*
X85180000Y-108026998D01*
X85430000Y-106365000D02*
X85750000Y-106365000D01*
X85200001Y-108753001D02*
X85200000Y-108460000D01*
X84835000Y-105210000D02*
X84835000Y-105250000D01*
X84304990Y-104679990D02*
X84835000Y-105210000D01*
X83130010Y-104679990D02*
X84304990Y-104679990D01*
X82535000Y-105250000D02*
X82560000Y-105250000D01*
X82560000Y-105250000D02*
X83130010Y-104679990D01*
X86000000Y-105250000D02*
X84835000Y-105250000D01*
X88600000Y-105900000D02*
X86650000Y-105900000D01*
X86650000Y-105900000D02*
X86000000Y-105250000D01*
X83847500Y-110517500D02*
X83865000Y-110500000D01*
X83259990Y-109929990D02*
X83847500Y-110517500D01*
X82120010Y-109929990D02*
X83259990Y-109929990D01*
X81565000Y-110500000D02*
X81565000Y-110485000D01*
X81565000Y-110485000D02*
X82120010Y-109929990D01*
X83865000Y-110180000D02*
X83865000Y-110500000D01*
X87675000Y-107400000D02*
X86094990Y-105819990D01*
X86094990Y-105819990D02*
X85412844Y-105819990D01*
X88600000Y-107400000D02*
X87675000Y-107400000D01*
X85412844Y-105819990D02*
X83865000Y-107367834D01*
X83865000Y-107367834D02*
X83865000Y-110180000D01*
X80650000Y-107340000D02*
X80650000Y-107335000D01*
X80000000Y-107990000D02*
X80650000Y-107340000D01*
X80000000Y-108840000D02*
X80000000Y-107990000D01*
X80650000Y-109435000D02*
X80595000Y-109435000D01*
X80595000Y-109435000D02*
X80000000Y-108840000D01*
X80650000Y-109900000D02*
X80650000Y-109435000D01*
X79400000Y-110400000D02*
X79750000Y-110050000D01*
X80500000Y-110050000D02*
X80650000Y-109900000D01*
X79750000Y-110050000D02*
X80500000Y-110050000D01*
X81565000Y-99947500D02*
X81565000Y-100000000D01*
X82082510Y-99429990D02*
X81565000Y-99947500D01*
X83259990Y-99429990D02*
X82082510Y-99429990D01*
X83865000Y-100000000D02*
X83830000Y-100000000D01*
X83830000Y-100000000D02*
X83259990Y-99429990D01*
X85380010Y-99662844D02*
X85380010Y-99680010D01*
X85380010Y-99680010D02*
X88600000Y-102900000D01*
X85147156Y-99429990D02*
X85380010Y-99662844D01*
X83865000Y-100000000D02*
X84435010Y-99429990D01*
X84435010Y-99429990D02*
X85147156Y-99429990D01*
X86870000Y-104170000D02*
X85750000Y-104170000D01*
X88600000Y-104400000D02*
X87100000Y-104400000D01*
X87100000Y-104400000D02*
X86870000Y-104170000D01*
X85750000Y-102035000D02*
X85750000Y-102050000D01*
X85720000Y-104170000D02*
X85750000Y-104170000D01*
X85750000Y-102050000D02*
X85179990Y-102620010D01*
X85179990Y-102620010D02*
X85179990Y-103629990D01*
X85179990Y-103629990D02*
X85720000Y-104170000D01*
X80620000Y-104170000D02*
X80650000Y-104170000D01*
X79600000Y-103150000D02*
X80620000Y-104170000D01*
X79400000Y-99900000D02*
X79600000Y-100100000D01*
X79600000Y-100100000D02*
X79600000Y-103150000D01*
X81224989Y-102574989D02*
X80685000Y-102035000D01*
X81224989Y-103625011D02*
X81224989Y-102574989D01*
X80685000Y-102035000D02*
X80650000Y-102035000D01*
X80650000Y-104170000D02*
X80680000Y-104170000D01*
X80680000Y-104170000D02*
X81224989Y-103625011D01*
D13*
X77900000Y-102925000D02*
X79225000Y-104250000D01*
X77900000Y-102900000D02*
X77900000Y-102925000D01*
X79225000Y-104250000D02*
X79300010Y-104250000D01*
D14*
G36*
X87853815Y-108596007D02*
G01*
X87853815Y-109400000D01*
X87858545Y-109448028D01*
X87872555Y-109494211D01*
X87895305Y-109536773D01*
X87925921Y-109574079D01*
X87963227Y-109604695D01*
X88005789Y-109627445D01*
X88051972Y-109641455D01*
X88100000Y-109646185D01*
X89100000Y-109646185D01*
X89148028Y-109641455D01*
X89194211Y-109627445D01*
X89236773Y-109604695D01*
X89274079Y-109574079D01*
X89304695Y-109536773D01*
X89327445Y-109494211D01*
X89340000Y-109452824D01*
X89340000Y-111340000D01*
X84430674Y-111340000D01*
X84474676Y-111316480D01*
X84519596Y-111279616D01*
X84528839Y-111268353D01*
X84731007Y-111066185D01*
X84982500Y-111066185D01*
X85059304Y-111058620D01*
X85133157Y-111036218D01*
X85201220Y-110999837D01*
X85260877Y-110950877D01*
X85309837Y-110891220D01*
X85346218Y-110823157D01*
X85368620Y-110749304D01*
X85376185Y-110672500D01*
X85376185Y-110327500D01*
X85368620Y-110250696D01*
X85346218Y-110176843D01*
X85309837Y-110108780D01*
X85260877Y-110049123D01*
X85201220Y-110000163D01*
X85133157Y-109963782D01*
X85130000Y-109962824D01*
X85130000Y-109240194D01*
X85205261Y-109164933D01*
X85191380Y-109210696D01*
X85183815Y-109287500D01*
X85183815Y-109582500D01*
X85191380Y-109659304D01*
X85213782Y-109733157D01*
X85250163Y-109801220D01*
X85299123Y-109860877D01*
X85358780Y-109909837D01*
X85426843Y-109946218D01*
X85500696Y-109968620D01*
X85577500Y-109976185D01*
X85922500Y-109976185D01*
X85999304Y-109968620D01*
X86073157Y-109946218D01*
X86141220Y-109909837D01*
X86153206Y-109900000D01*
X86353815Y-109900000D01*
X86353815Y-110900000D01*
X86358545Y-110948028D01*
X86372555Y-110994211D01*
X86395305Y-111036773D01*
X86425921Y-111074079D01*
X86463227Y-111104695D01*
X86505789Y-111127445D01*
X86551972Y-111141455D01*
X86600000Y-111146185D01*
X87600000Y-111146185D01*
X87648028Y-111141455D01*
X87694211Y-111127445D01*
X87736773Y-111104695D01*
X87774079Y-111074079D01*
X87804695Y-111036773D01*
X87827445Y-110994211D01*
X87841455Y-110948028D01*
X87846185Y-110900000D01*
X87846185Y-109900000D01*
X87841455Y-109851972D01*
X87827445Y-109805789D01*
X87804695Y-109763227D01*
X87774079Y-109725921D01*
X87736773Y-109695305D01*
X87694211Y-109672555D01*
X87648028Y-109658545D01*
X87600000Y-109653815D01*
X86600000Y-109653815D01*
X86551972Y-109658545D01*
X86505789Y-109672555D01*
X86463227Y-109695305D01*
X86425921Y-109725921D01*
X86395305Y-109763227D01*
X86372555Y-109805789D01*
X86358545Y-109851972D01*
X86353815Y-109900000D01*
X86153206Y-109900000D01*
X86200877Y-109860877D01*
X86249837Y-109801220D01*
X86286218Y-109733157D01*
X86308620Y-109659304D01*
X86316185Y-109582500D01*
X86316185Y-109301008D01*
X86518359Y-109098834D01*
X86529616Y-109089596D01*
X86566480Y-109044676D01*
X86593873Y-108993428D01*
X86610741Y-108937820D01*
X86615010Y-108894478D01*
X86615010Y-108894477D01*
X86616437Y-108879990D01*
X86615010Y-108865502D01*
X86615010Y-108220000D01*
X87477808Y-108220000D01*
X87853815Y-108596007D01*
G37*
X87853815Y-108596007D02*
X87853815Y-109400000D01*
X87858545Y-109448028D01*
X87872555Y-109494211D01*
X87895305Y-109536773D01*
X87925921Y-109574079D01*
X87963227Y-109604695D01*
X88005789Y-109627445D01*
X88051972Y-109641455D01*
X88100000Y-109646185D01*
X89100000Y-109646185D01*
X89148028Y-109641455D01*
X89194211Y-109627445D01*
X89236773Y-109604695D01*
X89274079Y-109574079D01*
X89304695Y-109536773D01*
X89327445Y-109494211D01*
X89340000Y-109452824D01*
X89340000Y-111340000D01*
X84430674Y-111340000D01*
X84474676Y-111316480D01*
X84519596Y-111279616D01*
X84528839Y-111268353D01*
X84731007Y-111066185D01*
X84982500Y-111066185D01*
X85059304Y-111058620D01*
X85133157Y-111036218D01*
X85201220Y-110999837D01*
X85260877Y-110950877D01*
X85309837Y-110891220D01*
X85346218Y-110823157D01*
X85368620Y-110749304D01*
X85376185Y-110672500D01*
X85376185Y-110327500D01*
X85368620Y-110250696D01*
X85346218Y-110176843D01*
X85309837Y-110108780D01*
X85260877Y-110049123D01*
X85201220Y-110000163D01*
X85133157Y-109963782D01*
X85130000Y-109962824D01*
X85130000Y-109240194D01*
X85205261Y-109164933D01*
X85191380Y-109210696D01*
X85183815Y-109287500D01*
X85183815Y-109582500D01*
X85191380Y-109659304D01*
X85213782Y-109733157D01*
X85250163Y-109801220D01*
X85299123Y-109860877D01*
X85358780Y-109909837D01*
X85426843Y-109946218D01*
X85500696Y-109968620D01*
X85577500Y-109976185D01*
X85922500Y-109976185D01*
X85999304Y-109968620D01*
X86073157Y-109946218D01*
X86141220Y-109909837D01*
X86153206Y-109900000D01*
X86353815Y-109900000D01*
X86353815Y-110900000D01*
X86358545Y-110948028D01*
X86372555Y-110994211D01*
X86395305Y-111036773D01*
X86425921Y-111074079D01*
X86463227Y-111104695D01*
X86505789Y-111127445D01*
X86551972Y-111141455D01*
X86600000Y-111146185D01*
X87600000Y-111146185D01*
X87648028Y-111141455D01*
X87694211Y-111127445D01*
X87736773Y-111104695D01*
X87774079Y-111074079D01*
X87804695Y-111036773D01*
X87827445Y-110994211D01*
X87841455Y-110948028D01*
X87846185Y-110900000D01*
X87846185Y-109900000D01*
X87841455Y-109851972D01*
X87827445Y-109805789D01*
X87804695Y-109763227D01*
X87774079Y-109725921D01*
X87736773Y-109695305D01*
X87694211Y-109672555D01*
X87648028Y-109658545D01*
X87600000Y-109653815D01*
X86600000Y-109653815D01*
X86551972Y-109658545D01*
X86505789Y-109672555D01*
X86463227Y-109695305D01*
X86425921Y-109725921D01*
X86395305Y-109763227D01*
X86372555Y-109805789D01*
X86358545Y-109851972D01*
X86353815Y-109900000D01*
X86153206Y-109900000D01*
X86200877Y-109860877D01*
X86249837Y-109801220D01*
X86286218Y-109733157D01*
X86308620Y-109659304D01*
X86316185Y-109582500D01*
X86316185Y-109301008D01*
X86518359Y-109098834D01*
X86529616Y-109089596D01*
X86566480Y-109044676D01*
X86593873Y-108993428D01*
X86610741Y-108937820D01*
X86615010Y-108894478D01*
X86615010Y-108894477D01*
X86616437Y-108879990D01*
X86615010Y-108865502D01*
X86615010Y-108220000D01*
X87477808Y-108220000D01*
X87853815Y-108596007D01*
G36*
X78805789Y-99172555D02*
G01*
X78763227Y-99195305D01*
X78725921Y-99225921D01*
X78695305Y-99263227D01*
X78672555Y-99305789D01*
X78658545Y-99351972D01*
X78653815Y-99400000D01*
X78653815Y-100400000D01*
X78658545Y-100448028D01*
X78672555Y-100494211D01*
X78695305Y-100536773D01*
X78725921Y-100574079D01*
X78763227Y-100604695D01*
X78805789Y-100627445D01*
X78851972Y-100641455D01*
X78900000Y-100646185D01*
X79305000Y-100646185D01*
X79305001Y-103135502D01*
X79303573Y-103150000D01*
X79309269Y-103207830D01*
X79326137Y-103263437D01*
X79326138Y-103263438D01*
X79353531Y-103314686D01*
X79390395Y-103359606D01*
X79401653Y-103368845D01*
X80083815Y-104051008D01*
X80083815Y-104317500D01*
X80091380Y-104394304D01*
X80113782Y-104468157D01*
X80150163Y-104536220D01*
X80199123Y-104595877D01*
X80258780Y-104644837D01*
X80326843Y-104681218D01*
X80400696Y-104703620D01*
X80477500Y-104711185D01*
X80822500Y-104711185D01*
X80899304Y-104703620D01*
X80973157Y-104681218D01*
X81041220Y-104644837D01*
X81100877Y-104595877D01*
X81149837Y-104536220D01*
X81186218Y-104468157D01*
X81208620Y-104394304D01*
X81216185Y-104317500D01*
X81216185Y-104051008D01*
X81230000Y-104037192D01*
X81230000Y-104733475D01*
X81198780Y-104750163D01*
X81139123Y-104799123D01*
X81090163Y-104858780D01*
X81053782Y-104926843D01*
X81031380Y-105000696D01*
X81023815Y-105077500D01*
X81023815Y-105422500D01*
X81027984Y-105464824D01*
X80668993Y-105823815D01*
X80477500Y-105823815D01*
X80400696Y-105831380D01*
X80326843Y-105853782D01*
X80258780Y-105890163D01*
X80199123Y-105939123D01*
X80150163Y-105998780D01*
X80113782Y-106066843D01*
X80091380Y-106140696D01*
X80083815Y-106217500D01*
X80083815Y-106512500D01*
X80091380Y-106589304D01*
X80113782Y-106663157D01*
X80150163Y-106731220D01*
X80199123Y-106790877D01*
X80258780Y-106839837D01*
X80277793Y-106850000D01*
X80258780Y-106860163D01*
X80199123Y-106909123D01*
X80150163Y-106968780D01*
X80113782Y-107036843D01*
X80091380Y-107110696D01*
X80083815Y-107187500D01*
X80083815Y-107482500D01*
X80084397Y-107488410D01*
X79801653Y-107771155D01*
X79790395Y-107780394D01*
X79753531Y-107825314D01*
X79741059Y-107848648D01*
X79726137Y-107876563D01*
X79709269Y-107932170D01*
X79703573Y-107990000D01*
X79705001Y-108004498D01*
X79705000Y-108825512D01*
X79703573Y-108840000D01*
X79709269Y-108897830D01*
X79721399Y-108937819D01*
X79726137Y-108953437D01*
X79753530Y-109004685D01*
X79790394Y-109049606D01*
X79801657Y-109058849D01*
X80083815Y-109341007D01*
X80083815Y-109582500D01*
X80091380Y-109659304D01*
X80113782Y-109733157D01*
X80125458Y-109755000D01*
X80097943Y-109755000D01*
X80074079Y-109725921D01*
X80036773Y-109695305D01*
X79994211Y-109672555D01*
X79948028Y-109658545D01*
X79900000Y-109653815D01*
X78900000Y-109653815D01*
X78851972Y-109658545D01*
X78805789Y-109672555D01*
X78763227Y-109695305D01*
X78725921Y-109725921D01*
X78695305Y-109763227D01*
X78672555Y-109805789D01*
X78658545Y-109851972D01*
X78653815Y-109900000D01*
X78653815Y-110900000D01*
X78658545Y-110948028D01*
X78672555Y-110994211D01*
X78695305Y-111036773D01*
X78725921Y-111074079D01*
X78763227Y-111104695D01*
X78805789Y-111127445D01*
X78851972Y-111141455D01*
X78900000Y-111146185D01*
X79900000Y-111146185D01*
X79948028Y-111141455D01*
X79994211Y-111127445D01*
X80036773Y-111104695D01*
X80074079Y-111074079D01*
X80104695Y-111036773D01*
X80127445Y-110994211D01*
X80141455Y-110948028D01*
X80146185Y-110900000D01*
X80146185Y-110345000D01*
X80485512Y-110345000D01*
X80500000Y-110346427D01*
X80557830Y-110340731D01*
X80575421Y-110335395D01*
X80613438Y-110323863D01*
X80664686Y-110296470D01*
X80709606Y-110259606D01*
X80718849Y-110248343D01*
X80724991Y-110242201D01*
X80724990Y-110885502D01*
X80723563Y-110899990D01*
X80724990Y-110914477D01*
X80729259Y-110957819D01*
X80746127Y-111013427D01*
X80773520Y-111064675D01*
X80810384Y-111109596D01*
X80821647Y-111118839D01*
X80971161Y-111268353D01*
X80980404Y-111279616D01*
X81025323Y-111316479D01*
X81025324Y-111316480D01*
X81069326Y-111340000D01*
X77160000Y-111340000D01*
X77160000Y-110952824D01*
X77172555Y-110994211D01*
X77195305Y-111036773D01*
X77225921Y-111074079D01*
X77263227Y-111104695D01*
X77305789Y-111127445D01*
X77351972Y-111141455D01*
X77400000Y-111146185D01*
X78400000Y-111146185D01*
X78448028Y-111141455D01*
X78494211Y-111127445D01*
X78536773Y-111104695D01*
X78574079Y-111074079D01*
X78604695Y-111036773D01*
X78627445Y-110994211D01*
X78641455Y-110948028D01*
X78646185Y-110900000D01*
X78646185Y-109900000D01*
X78641455Y-109851972D01*
X78627445Y-109805789D01*
X78604695Y-109763227D01*
X78574079Y-109725921D01*
X78536773Y-109695305D01*
X78494211Y-109672555D01*
X78448028Y-109658545D01*
X78400000Y-109653815D01*
X77400000Y-109653815D01*
X77351972Y-109658545D01*
X77305789Y-109672555D01*
X77263227Y-109695305D01*
X77225921Y-109725921D01*
X77195305Y-109763227D01*
X77172555Y-109805789D01*
X77160000Y-109847176D01*
X77160000Y-109452824D01*
X77172555Y-109494211D01*
X77195305Y-109536773D01*
X77225921Y-109574079D01*
X77263227Y-109604695D01*
X77305789Y-109627445D01*
X77351972Y-109641455D01*
X77400000Y-109646185D01*
X78400000Y-109646185D01*
X78448028Y-109641455D01*
X78494211Y-109627445D01*
X78536773Y-109604695D01*
X78574079Y-109574079D01*
X78604695Y-109536773D01*
X78627445Y-109494211D01*
X78641455Y-109448028D01*
X78646185Y-109400000D01*
X78646185Y-108400000D01*
X78641455Y-108351972D01*
X78627445Y-108305789D01*
X78604695Y-108263227D01*
X78574079Y-108225921D01*
X78536773Y-108195305D01*
X78494211Y-108172555D01*
X78448028Y-108158545D01*
X78400000Y-108153815D01*
X77400000Y-108153815D01*
X77351972Y-108158545D01*
X77305789Y-108172555D01*
X77263227Y-108195305D01*
X77225921Y-108225921D01*
X77195305Y-108263227D01*
X77172555Y-108305789D01*
X77160000Y-108347176D01*
X77160000Y-107952824D01*
X77172555Y-107994211D01*
X77195305Y-108036773D01*
X77225921Y-108074079D01*
X77263227Y-108104695D01*
X77305789Y-108127445D01*
X77351972Y-108141455D01*
X77400000Y-108146185D01*
X78400000Y-108146185D01*
X78448028Y-108141455D01*
X78494211Y-108127445D01*
X78536773Y-108104695D01*
X78574079Y-108074079D01*
X78604695Y-108036773D01*
X78627445Y-107994211D01*
X78641455Y-107948028D01*
X78646185Y-107900000D01*
X78646185Y-106900000D01*
X78641455Y-106851972D01*
X78627445Y-106805789D01*
X78604695Y-106763227D01*
X78574079Y-106725921D01*
X78536773Y-106695305D01*
X78494211Y-106672555D01*
X78448028Y-106658545D01*
X78400000Y-106653815D01*
X77400000Y-106653815D01*
X77351972Y-106658545D01*
X77305789Y-106672555D01*
X77263227Y-106695305D01*
X77225921Y-106725921D01*
X77195305Y-106763227D01*
X77172555Y-106805789D01*
X77160000Y-106847176D01*
X77160000Y-106452824D01*
X77172555Y-106494211D01*
X77195305Y-106536773D01*
X77225921Y-106574079D01*
X77263227Y-106604695D01*
X77305789Y-106627445D01*
X77351972Y-106641455D01*
X77400000Y-106646185D01*
X78400000Y-106646185D01*
X78448028Y-106641455D01*
X78494211Y-106627445D01*
X78536773Y-106604695D01*
X78574079Y-106574079D01*
X78604695Y-106536773D01*
X78627445Y-106494211D01*
X78641455Y-106448028D01*
X78646185Y-106400000D01*
X78646185Y-105400000D01*
X78641455Y-105351972D01*
X78627445Y-105305789D01*
X78604695Y-105263227D01*
X78574079Y-105225921D01*
X78536773Y-105195305D01*
X78494211Y-105172555D01*
X78448028Y-105158545D01*
X78400000Y-105153815D01*
X77400000Y-105153815D01*
X77351972Y-105158545D01*
X77305789Y-105172555D01*
X77263227Y-105195305D01*
X77225921Y-105225921D01*
X77195305Y-105263227D01*
X77172555Y-105305789D01*
X77160000Y-105347176D01*
X77160000Y-104952824D01*
X77172555Y-104994211D01*
X77195305Y-105036773D01*
X77225921Y-105074079D01*
X77263227Y-105104695D01*
X77305789Y-105127445D01*
X77351972Y-105141455D01*
X77400000Y-105146185D01*
X78400000Y-105146185D01*
X78448028Y-105141455D01*
X78494211Y-105127445D01*
X78536773Y-105104695D01*
X78574079Y-105074079D01*
X78604695Y-105036773D01*
X78627445Y-104994211D01*
X78641455Y-104948028D01*
X78646185Y-104900000D01*
X78646185Y-104123733D01*
X78832808Y-104310355D01*
X78848072Y-104387094D01*
X78883502Y-104472628D01*
X78934937Y-104549607D01*
X79000403Y-104615073D01*
X79077382Y-104666508D01*
X79162916Y-104701938D01*
X79253719Y-104720000D01*
X79346301Y-104720000D01*
X79437104Y-104701938D01*
X79522638Y-104666508D01*
X79599617Y-104615073D01*
X79665083Y-104549607D01*
X79716518Y-104472628D01*
X79751948Y-104387094D01*
X79770010Y-104296291D01*
X79770010Y-104203709D01*
X79751948Y-104112906D01*
X79716518Y-104027372D01*
X79665083Y-103950393D01*
X79599617Y-103884927D01*
X79522638Y-103833492D01*
X79437104Y-103798062D01*
X79346301Y-103780000D01*
X79253719Y-103780000D01*
X79215208Y-103787660D01*
X78646185Y-103218638D01*
X78646185Y-102400000D01*
X78641455Y-102351972D01*
X78627445Y-102305789D01*
X78604695Y-102263227D01*
X78574079Y-102225921D01*
X78536773Y-102195305D01*
X78494211Y-102172555D01*
X78448028Y-102158545D01*
X78400000Y-102153815D01*
X77400000Y-102153815D01*
X77351972Y-102158545D01*
X77305789Y-102172555D01*
X77263227Y-102195305D01*
X77225921Y-102225921D01*
X77195305Y-102263227D01*
X77172555Y-102305789D01*
X77160000Y-102347176D01*
X77160000Y-101952824D01*
X77172555Y-101994211D01*
X77195305Y-102036773D01*
X77225921Y-102074079D01*
X77263227Y-102104695D01*
X77305789Y-102127445D01*
X77351972Y-102141455D01*
X77400000Y-102146185D01*
X78400000Y-102146185D01*
X78448028Y-102141455D01*
X78494211Y-102127445D01*
X78536773Y-102104695D01*
X78574079Y-102074079D01*
X78604695Y-102036773D01*
X78627445Y-101994211D01*
X78641455Y-101948028D01*
X78646185Y-101900000D01*
X78646185Y-100900000D01*
X78641455Y-100851972D01*
X78627445Y-100805789D01*
X78604695Y-100763227D01*
X78574079Y-100725921D01*
X78536773Y-100695305D01*
X78494211Y-100672555D01*
X78448028Y-100658545D01*
X78400000Y-100653815D01*
X77400000Y-100653815D01*
X77351972Y-100658545D01*
X77305789Y-100672555D01*
X77263227Y-100695305D01*
X77225921Y-100725921D01*
X77195305Y-100763227D01*
X77172555Y-100805789D01*
X77160000Y-100847176D01*
X77160000Y-99160000D01*
X78847176Y-99160000D01*
X78805789Y-99172555D01*
G37*
X78805789Y-99172555D02*
X78763227Y-99195305D01*
X78725921Y-99225921D01*
X78695305Y-99263227D01*
X78672555Y-99305789D01*
X78658545Y-99351972D01*
X78653815Y-99400000D01*
X78653815Y-100400000D01*
X78658545Y-100448028D01*
X78672555Y-100494211D01*
X78695305Y-100536773D01*
X78725921Y-100574079D01*
X78763227Y-100604695D01*
X78805789Y-100627445D01*
X78851972Y-100641455D01*
X78900000Y-100646185D01*
X79305000Y-100646185D01*
X79305001Y-103135502D01*
X79303573Y-103150000D01*
X79309269Y-103207830D01*
X79326137Y-103263437D01*
X79326138Y-103263438D01*
X79353531Y-103314686D01*
X79390395Y-103359606D01*
X79401653Y-103368845D01*
X80083815Y-104051008D01*
X80083815Y-104317500D01*
X80091380Y-104394304D01*
X80113782Y-104468157D01*
X80150163Y-104536220D01*
X80199123Y-104595877D01*
X80258780Y-104644837D01*
X80326843Y-104681218D01*
X80400696Y-104703620D01*
X80477500Y-104711185D01*
X80822500Y-104711185D01*
X80899304Y-104703620D01*
X80973157Y-104681218D01*
X81041220Y-104644837D01*
X81100877Y-104595877D01*
X81149837Y-104536220D01*
X81186218Y-104468157D01*
X81208620Y-104394304D01*
X81216185Y-104317500D01*
X81216185Y-104051008D01*
X81230000Y-104037192D01*
X81230000Y-104733475D01*
X81198780Y-104750163D01*
X81139123Y-104799123D01*
X81090163Y-104858780D01*
X81053782Y-104926843D01*
X81031380Y-105000696D01*
X81023815Y-105077500D01*
X81023815Y-105422500D01*
X81027984Y-105464824D01*
X80668993Y-105823815D01*
X80477500Y-105823815D01*
X80400696Y-105831380D01*
X80326843Y-105853782D01*
X80258780Y-105890163D01*
X80199123Y-105939123D01*
X80150163Y-105998780D01*
X80113782Y-106066843D01*
X80091380Y-106140696D01*
X80083815Y-106217500D01*
X80083815Y-106512500D01*
X80091380Y-106589304D01*
X80113782Y-106663157D01*
X80150163Y-106731220D01*
X80199123Y-106790877D01*
X80258780Y-106839837D01*
X80277793Y-106850000D01*
X80258780Y-106860163D01*
X80199123Y-106909123D01*
X80150163Y-106968780D01*
X80113782Y-107036843D01*
X80091380Y-107110696D01*
X80083815Y-107187500D01*
X80083815Y-107482500D01*
X80084397Y-107488410D01*
X79801653Y-107771155D01*
X79790395Y-107780394D01*
X79753531Y-107825314D01*
X79741059Y-107848648D01*
X79726137Y-107876563D01*
X79709269Y-107932170D01*
X79703573Y-107990000D01*
X79705001Y-108004498D01*
X79705000Y-108825512D01*
X79703573Y-108840000D01*
X79709269Y-108897830D01*
X79721399Y-108937819D01*
X79726137Y-108953437D01*
X79753530Y-109004685D01*
X79790394Y-109049606D01*
X79801657Y-109058849D01*
X80083815Y-109341007D01*
X80083815Y-109582500D01*
X80091380Y-109659304D01*
X80113782Y-109733157D01*
X80125458Y-109755000D01*
X80097943Y-109755000D01*
X80074079Y-109725921D01*
X80036773Y-109695305D01*
X79994211Y-109672555D01*
X79948028Y-109658545D01*
X79900000Y-109653815D01*
X78900000Y-109653815D01*
X78851972Y-109658545D01*
X78805789Y-109672555D01*
X78763227Y-109695305D01*
X78725921Y-109725921D01*
X78695305Y-109763227D01*
X78672555Y-109805789D01*
X78658545Y-109851972D01*
X78653815Y-109900000D01*
X78653815Y-110900000D01*
X78658545Y-110948028D01*
X78672555Y-110994211D01*
X78695305Y-111036773D01*
X78725921Y-111074079D01*
X78763227Y-111104695D01*
X78805789Y-111127445D01*
X78851972Y-111141455D01*
X78900000Y-111146185D01*
X79900000Y-111146185D01*
X79948028Y-111141455D01*
X79994211Y-111127445D01*
X80036773Y-111104695D01*
X80074079Y-111074079D01*
X80104695Y-111036773D01*
X80127445Y-110994211D01*
X80141455Y-110948028D01*
X80146185Y-110900000D01*
X80146185Y-110345000D01*
X80485512Y-110345000D01*
X80500000Y-110346427D01*
X80557830Y-110340731D01*
X80575421Y-110335395D01*
X80613438Y-110323863D01*
X80664686Y-110296470D01*
X80709606Y-110259606D01*
X80718849Y-110248343D01*
X80724991Y-110242201D01*
X80724990Y-110885502D01*
X80723563Y-110899990D01*
X80724990Y-110914477D01*
X80729259Y-110957819D01*
X80746127Y-111013427D01*
X80773520Y-111064675D01*
X80810384Y-111109596D01*
X80821647Y-111118839D01*
X80971161Y-111268353D01*
X80980404Y-111279616D01*
X81025323Y-111316479D01*
X81025324Y-111316480D01*
X81069326Y-111340000D01*
X77160000Y-111340000D01*
X77160000Y-110952824D01*
X77172555Y-110994211D01*
X77195305Y-111036773D01*
X77225921Y-111074079D01*
X77263227Y-111104695D01*
X77305789Y-111127445D01*
X77351972Y-111141455D01*
X77400000Y-111146185D01*
X78400000Y-111146185D01*
X78448028Y-111141455D01*
X78494211Y-111127445D01*
X78536773Y-111104695D01*
X78574079Y-111074079D01*
X78604695Y-111036773D01*
X78627445Y-110994211D01*
X78641455Y-110948028D01*
X78646185Y-110900000D01*
X78646185Y-109900000D01*
X78641455Y-109851972D01*
X78627445Y-109805789D01*
X78604695Y-109763227D01*
X78574079Y-109725921D01*
X78536773Y-109695305D01*
X78494211Y-109672555D01*
X78448028Y-109658545D01*
X78400000Y-109653815D01*
X77400000Y-109653815D01*
X77351972Y-109658545D01*
X77305789Y-109672555D01*
X77263227Y-109695305D01*
X77225921Y-109725921D01*
X77195305Y-109763227D01*
X77172555Y-109805789D01*
X77160000Y-109847176D01*
X77160000Y-109452824D01*
X77172555Y-109494211D01*
X77195305Y-109536773D01*
X77225921Y-109574079D01*
X77263227Y-109604695D01*
X77305789Y-109627445D01*
X77351972Y-109641455D01*
X77400000Y-109646185D01*
X78400000Y-109646185D01*
X78448028Y-109641455D01*
X78494211Y-109627445D01*
X78536773Y-109604695D01*
X78574079Y-109574079D01*
X78604695Y-109536773D01*
X78627445Y-109494211D01*
X78641455Y-109448028D01*
X78646185Y-109400000D01*
X78646185Y-108400000D01*
X78641455Y-108351972D01*
X78627445Y-108305789D01*
X78604695Y-108263227D01*
X78574079Y-108225921D01*
X78536773Y-108195305D01*
X78494211Y-108172555D01*
X78448028Y-108158545D01*
X78400000Y-108153815D01*
X77400000Y-108153815D01*
X77351972Y-108158545D01*
X77305789Y-108172555D01*
X77263227Y-108195305D01*
X77225921Y-108225921D01*
X77195305Y-108263227D01*
X77172555Y-108305789D01*
X77160000Y-108347176D01*
X77160000Y-107952824D01*
X77172555Y-107994211D01*
X77195305Y-108036773D01*
X77225921Y-108074079D01*
X77263227Y-108104695D01*
X77305789Y-108127445D01*
X77351972Y-108141455D01*
X77400000Y-108146185D01*
X78400000Y-108146185D01*
X78448028Y-108141455D01*
X78494211Y-108127445D01*
X78536773Y-108104695D01*
X78574079Y-108074079D01*
X78604695Y-108036773D01*
X78627445Y-107994211D01*
X78641455Y-107948028D01*
X78646185Y-107900000D01*
X78646185Y-106900000D01*
X78641455Y-106851972D01*
X78627445Y-106805789D01*
X78604695Y-106763227D01*
X78574079Y-106725921D01*
X78536773Y-106695305D01*
X78494211Y-106672555D01*
X78448028Y-106658545D01*
X78400000Y-106653815D01*
X77400000Y-106653815D01*
X77351972Y-106658545D01*
X77305789Y-106672555D01*
X77263227Y-106695305D01*
X77225921Y-106725921D01*
X77195305Y-106763227D01*
X77172555Y-106805789D01*
X77160000Y-106847176D01*
X77160000Y-106452824D01*
X77172555Y-106494211D01*
X77195305Y-106536773D01*
X77225921Y-106574079D01*
X77263227Y-106604695D01*
X77305789Y-106627445D01*
X77351972Y-106641455D01*
X77400000Y-106646185D01*
X78400000Y-106646185D01*
X78448028Y-106641455D01*
X78494211Y-106627445D01*
X78536773Y-106604695D01*
X78574079Y-106574079D01*
X78604695Y-106536773D01*
X78627445Y-106494211D01*
X78641455Y-106448028D01*
X78646185Y-106400000D01*
X78646185Y-105400000D01*
X78641455Y-105351972D01*
X78627445Y-105305789D01*
X78604695Y-105263227D01*
X78574079Y-105225921D01*
X78536773Y-105195305D01*
X78494211Y-105172555D01*
X78448028Y-105158545D01*
X78400000Y-105153815D01*
X77400000Y-105153815D01*
X77351972Y-105158545D01*
X77305789Y-105172555D01*
X77263227Y-105195305D01*
X77225921Y-105225921D01*
X77195305Y-105263227D01*
X77172555Y-105305789D01*
X77160000Y-105347176D01*
X77160000Y-104952824D01*
X77172555Y-104994211D01*
X77195305Y-105036773D01*
X77225921Y-105074079D01*
X77263227Y-105104695D01*
X77305789Y-105127445D01*
X77351972Y-105141455D01*
X77400000Y-105146185D01*
X78400000Y-105146185D01*
X78448028Y-105141455D01*
X78494211Y-105127445D01*
X78536773Y-105104695D01*
X78574079Y-105074079D01*
X78604695Y-105036773D01*
X78627445Y-104994211D01*
X78641455Y-104948028D01*
X78646185Y-104900000D01*
X78646185Y-104123733D01*
X78832808Y-104310355D01*
X78848072Y-104387094D01*
X78883502Y-104472628D01*
X78934937Y-104549607D01*
X79000403Y-104615073D01*
X79077382Y-104666508D01*
X79162916Y-104701938D01*
X79253719Y-104720000D01*
X79346301Y-104720000D01*
X79437104Y-104701938D01*
X79522638Y-104666508D01*
X79599617Y-104615073D01*
X79665083Y-104549607D01*
X79716518Y-104472628D01*
X79751948Y-104387094D01*
X79770010Y-104296291D01*
X79770010Y-104203709D01*
X79751948Y-104112906D01*
X79716518Y-104027372D01*
X79665083Y-103950393D01*
X79599617Y-103884927D01*
X79522638Y-103833492D01*
X79437104Y-103798062D01*
X79346301Y-103780000D01*
X79253719Y-103780000D01*
X79215208Y-103787660D01*
X78646185Y-103218638D01*
X78646185Y-102400000D01*
X78641455Y-102351972D01*
X78627445Y-102305789D01*
X78604695Y-102263227D01*
X78574079Y-102225921D01*
X78536773Y-102195305D01*
X78494211Y-102172555D01*
X78448028Y-102158545D01*
X78400000Y-102153815D01*
X77400000Y-102153815D01*
X77351972Y-102158545D01*
X77305789Y-102172555D01*
X77263227Y-102195305D01*
X77225921Y-102225921D01*
X77195305Y-102263227D01*
X77172555Y-102305789D01*
X77160000Y-102347176D01*
X77160000Y-101952824D01*
X77172555Y-101994211D01*
X77195305Y-102036773D01*
X77225921Y-102074079D01*
X77263227Y-102104695D01*
X77305789Y-102127445D01*
X77351972Y-102141455D01*
X77400000Y-102146185D01*
X78400000Y-102146185D01*
X78448028Y-102141455D01*
X78494211Y-102127445D01*
X78536773Y-102104695D01*
X78574079Y-102074079D01*
X78604695Y-102036773D01*
X78627445Y-101994211D01*
X78641455Y-101948028D01*
X78646185Y-101900000D01*
X78646185Y-100900000D01*
X78641455Y-100851972D01*
X78627445Y-100805789D01*
X78604695Y-100763227D01*
X78574079Y-100725921D01*
X78536773Y-100695305D01*
X78494211Y-100672555D01*
X78448028Y-100658545D01*
X78400000Y-100653815D01*
X77400000Y-100653815D01*
X77351972Y-100658545D01*
X77305789Y-100672555D01*
X77263227Y-100695305D01*
X77225921Y-100725921D01*
X77195305Y-100763227D01*
X77172555Y-100805789D01*
X77160000Y-100847176D01*
X77160000Y-99160000D01*
X78847176Y-99160000D01*
X78805789Y-99172555D01*
G36*
X84885000Y-108012510D02*
G01*
X84883573Y-108026998D01*
X84889269Y-108084828D01*
X84890743Y-108089686D01*
X84905002Y-108136692D01*
X84905000Y-108445511D01*
X84903573Y-108460000D01*
X84905000Y-108474487D01*
X84905001Y-108630808D01*
X84636653Y-108899157D01*
X84625395Y-108908396D01*
X84588531Y-108953316D01*
X84573888Y-108980710D01*
X84561137Y-109004565D01*
X84544269Y-109060172D01*
X84538573Y-109118002D01*
X84540001Y-109132500D01*
X84540000Y-109962824D01*
X84536843Y-109963782D01*
X84468780Y-110000163D01*
X84409123Y-110049123D01*
X84360163Y-110108780D01*
X84350000Y-110127793D01*
X84339837Y-110108780D01*
X84290877Y-110049123D01*
X84231220Y-110000163D01*
X84163157Y-109963782D01*
X84160000Y-109962824D01*
X84160000Y-107490026D01*
X84885001Y-106765026D01*
X84885000Y-108012510D01*
G37*
X84885000Y-108012510D02*
X84883573Y-108026998D01*
X84889269Y-108084828D01*
X84890743Y-108089686D01*
X84905002Y-108136692D01*
X84905000Y-108445511D01*
X84903573Y-108460000D01*
X84905000Y-108474487D01*
X84905001Y-108630808D01*
X84636653Y-108899157D01*
X84625395Y-108908396D01*
X84588531Y-108953316D01*
X84573888Y-108980710D01*
X84561137Y-109004565D01*
X84544269Y-109060172D01*
X84538573Y-109118002D01*
X84540001Y-109132500D01*
X84540000Y-109962824D01*
X84536843Y-109963782D01*
X84468780Y-110000163D01*
X84409123Y-110049123D01*
X84360163Y-110108780D01*
X84350000Y-110127793D01*
X84339837Y-110108780D01*
X84290877Y-110049123D01*
X84231220Y-110000163D01*
X84163157Y-109963782D01*
X84160000Y-109962824D01*
X84160000Y-107490026D01*
X84885001Y-106765026D01*
X84885000Y-108012510D01*
G36*
X84360163Y-105641220D02*
G01*
X84409123Y-105700877D01*
X84468780Y-105749837D01*
X84536843Y-105786218D01*
X84610696Y-105808620D01*
X84687500Y-105816185D01*
X84982500Y-105816185D01*
X85001309Y-105814332D01*
X83666657Y-107148985D01*
X83655394Y-107158228D01*
X83618530Y-107203149D01*
X83600670Y-107236563D01*
X83591137Y-107254397D01*
X83574269Y-107310004D01*
X83568573Y-107367834D01*
X83570000Y-107382322D01*
X83570001Y-109822809D01*
X83478839Y-109731647D01*
X83469596Y-109720384D01*
X83424676Y-109683520D01*
X83373428Y-109656127D01*
X83317820Y-109639259D01*
X83274478Y-109634990D01*
X83259990Y-109633563D01*
X83245502Y-109634990D01*
X82134498Y-109634990D01*
X82120010Y-109633563D01*
X82105522Y-109634990D01*
X82062180Y-109639259D01*
X82006572Y-109656127D01*
X81955324Y-109683520D01*
X81910404Y-109720384D01*
X81901165Y-109731642D01*
X81698992Y-109933815D01*
X81499822Y-109933815D01*
X81502019Y-109926573D01*
X81510741Y-109897821D01*
X81516437Y-109839990D01*
X81515010Y-109825502D01*
X81515010Y-109044498D01*
X81516437Y-109030010D01*
X81510741Y-108972180D01*
X81493873Y-108916572D01*
X81489503Y-108908396D01*
X81466480Y-108865324D01*
X81429616Y-108820404D01*
X81418358Y-108811165D01*
X81216185Y-108608992D01*
X81216185Y-108351008D01*
X81438349Y-108128844D01*
X81449606Y-108119606D01*
X81486470Y-108074686D01*
X81513863Y-108023438D01*
X81530731Y-107967830D01*
X81535000Y-107924488D01*
X81535000Y-107924487D01*
X81536427Y-107910000D01*
X81535000Y-107895512D01*
X81535000Y-106894488D01*
X81536427Y-106880000D01*
X81530731Y-106822169D01*
X81513863Y-106766562D01*
X81512080Y-106763227D01*
X81486470Y-106715314D01*
X81449606Y-106670394D01*
X81438348Y-106661155D01*
X81216185Y-106438992D01*
X81216185Y-106217500D01*
X81208620Y-106140696D01*
X81203471Y-106123721D01*
X81511008Y-105816185D01*
X81712500Y-105816185D01*
X81766203Y-105810895D01*
X81973665Y-106018358D01*
X81982904Y-106029616D01*
X82027824Y-106066480D01*
X82073955Y-106091138D01*
X82079072Y-106093873D01*
X82134680Y-106110741D01*
X82192510Y-106116437D01*
X82206998Y-106115010D01*
X83255502Y-106115010D01*
X83269990Y-106116437D01*
X83327820Y-106110741D01*
X83331565Y-106109605D01*
X83383428Y-106093873D01*
X83434676Y-106066480D01*
X83479596Y-106029616D01*
X83488839Y-106018353D01*
X83693383Y-105813810D01*
X83717500Y-105816185D01*
X84012500Y-105816185D01*
X84089304Y-105808620D01*
X84163157Y-105786218D01*
X84231220Y-105749837D01*
X84290877Y-105700877D01*
X84339837Y-105641220D01*
X84350000Y-105622207D01*
X84360163Y-105641220D01*
G37*
X84360163Y-105641220D02*
X84409123Y-105700877D01*
X84468780Y-105749837D01*
X84536843Y-105786218D01*
X84610696Y-105808620D01*
X84687500Y-105816185D01*
X84982500Y-105816185D01*
X85001309Y-105814332D01*
X83666657Y-107148985D01*
X83655394Y-107158228D01*
X83618530Y-107203149D01*
X83600670Y-107236563D01*
X83591137Y-107254397D01*
X83574269Y-107310004D01*
X83568573Y-107367834D01*
X83570000Y-107382322D01*
X83570001Y-109822809D01*
X83478839Y-109731647D01*
X83469596Y-109720384D01*
X83424676Y-109683520D01*
X83373428Y-109656127D01*
X83317820Y-109639259D01*
X83274478Y-109634990D01*
X83259990Y-109633563D01*
X83245502Y-109634990D01*
X82134498Y-109634990D01*
X82120010Y-109633563D01*
X82105522Y-109634990D01*
X82062180Y-109639259D01*
X82006572Y-109656127D01*
X81955324Y-109683520D01*
X81910404Y-109720384D01*
X81901165Y-109731642D01*
X81698992Y-109933815D01*
X81499822Y-109933815D01*
X81502019Y-109926573D01*
X81510741Y-109897821D01*
X81516437Y-109839990D01*
X81515010Y-109825502D01*
X81515010Y-109044498D01*
X81516437Y-109030010D01*
X81510741Y-108972180D01*
X81493873Y-108916572D01*
X81489503Y-108908396D01*
X81466480Y-108865324D01*
X81429616Y-108820404D01*
X81418358Y-108811165D01*
X81216185Y-108608992D01*
X81216185Y-108351008D01*
X81438349Y-108128844D01*
X81449606Y-108119606D01*
X81486470Y-108074686D01*
X81513863Y-108023438D01*
X81530731Y-107967830D01*
X81535000Y-107924488D01*
X81535000Y-107924487D01*
X81536427Y-107910000D01*
X81535000Y-107895512D01*
X81535000Y-106894488D01*
X81536427Y-106880000D01*
X81530731Y-106822169D01*
X81513863Y-106766562D01*
X81512080Y-106763227D01*
X81486470Y-106715314D01*
X81449606Y-106670394D01*
X81438348Y-106661155D01*
X81216185Y-106438992D01*
X81216185Y-106217500D01*
X81208620Y-106140696D01*
X81203471Y-106123721D01*
X81511008Y-105816185D01*
X81712500Y-105816185D01*
X81766203Y-105810895D01*
X81973665Y-106018358D01*
X81982904Y-106029616D01*
X82027824Y-106066480D01*
X82073955Y-106091138D01*
X82079072Y-106093873D01*
X82134680Y-106110741D01*
X82192510Y-106116437D01*
X82206998Y-106115010D01*
X83255502Y-106115010D01*
X83269990Y-106116437D01*
X83327820Y-106110741D01*
X83331565Y-106109605D01*
X83383428Y-106093873D01*
X83434676Y-106066480D01*
X83479596Y-106029616D01*
X83488839Y-106018353D01*
X83693383Y-105813810D01*
X83717500Y-105816185D01*
X84012500Y-105816185D01*
X84089304Y-105808620D01*
X84163157Y-105786218D01*
X84231220Y-105749837D01*
X84290877Y-105700877D01*
X84339837Y-105641220D01*
X84350000Y-105622207D01*
X84360163Y-105641220D01*
G36*
X81917824Y-99183520D02*
G01*
X81872904Y-99220384D01*
X81863665Y-99231642D01*
X81661492Y-99433815D01*
X81417500Y-99433815D01*
X81340696Y-99441380D01*
X81266843Y-99463782D01*
X81198780Y-99500163D01*
X81139123Y-99549123D01*
X81090163Y-99608780D01*
X81053782Y-99676843D01*
X81031380Y-99750696D01*
X81023815Y-99827500D01*
X81023815Y-100172500D01*
X81031380Y-100249304D01*
X81053782Y-100323157D01*
X81090163Y-100391220D01*
X81139123Y-100450877D01*
X81198780Y-100499837D01*
X81266843Y-100536218D01*
X81340696Y-100558620D01*
X81417500Y-100566185D01*
X81712500Y-100566185D01*
X81789304Y-100558620D01*
X81863157Y-100536218D01*
X81931220Y-100499837D01*
X81990877Y-100450877D01*
X82039837Y-100391220D01*
X82050000Y-100372207D01*
X82060163Y-100391220D01*
X82109123Y-100450877D01*
X82168780Y-100499837D01*
X82236843Y-100536218D01*
X82310696Y-100558620D01*
X82361424Y-100563617D01*
X82566165Y-100768358D01*
X82575404Y-100779616D01*
X82607297Y-100805789D01*
X82620324Y-100816480D01*
X82671572Y-100843873D01*
X82727180Y-100860741D01*
X82785010Y-100866437D01*
X82799498Y-100865010D01*
X84460188Y-100865010D01*
X84780001Y-101194600D01*
X84780000Y-102178529D01*
X82578530Y-104380000D01*
X82139488Y-104380000D01*
X82125000Y-104378573D01*
X82110512Y-104380000D01*
X82067170Y-104384269D01*
X82011562Y-104401137D01*
X81960314Y-104428530D01*
X81915394Y-104465394D01*
X81906155Y-104476652D01*
X81820000Y-104562807D01*
X81820000Y-102872192D01*
X82037421Y-102654771D01*
X82063709Y-102660000D01*
X82156291Y-102660000D01*
X82247094Y-102641938D01*
X82332628Y-102606508D01*
X82409607Y-102555073D01*
X82475073Y-102489607D01*
X82526508Y-102412628D01*
X82561938Y-102327094D01*
X82580000Y-102236291D01*
X82580000Y-102143709D01*
X82561938Y-102052906D01*
X82526508Y-101967372D01*
X82475073Y-101890393D01*
X82409607Y-101824927D01*
X82332628Y-101773492D01*
X82247094Y-101738062D01*
X82156291Y-101720000D01*
X82063709Y-101720000D01*
X82041592Y-101724399D01*
X81883849Y-101566657D01*
X81874606Y-101555394D01*
X81829686Y-101518530D01*
X81778438Y-101491137D01*
X81722830Y-101474269D01*
X81679488Y-101470000D01*
X81665000Y-101468573D01*
X81650512Y-101470000D01*
X81492193Y-101470000D01*
X81216185Y-101193993D01*
X81216185Y-100917500D01*
X81208620Y-100840696D01*
X81186218Y-100766843D01*
X81149837Y-100698780D01*
X81100877Y-100639123D01*
X81041220Y-100590163D01*
X80973157Y-100553782D01*
X80899304Y-100531380D01*
X80822500Y-100523815D01*
X80477500Y-100523815D01*
X80400696Y-100531380D01*
X80326843Y-100553782D01*
X80258780Y-100590163D01*
X80199123Y-100639123D01*
X80150163Y-100698780D01*
X80113782Y-100766843D01*
X80091380Y-100840696D01*
X80083815Y-100917500D01*
X80083815Y-101178993D01*
X79895000Y-101367808D01*
X79895000Y-100646185D01*
X79900000Y-100646185D01*
X79948028Y-100641455D01*
X79994211Y-100627445D01*
X80036773Y-100604695D01*
X80074079Y-100574079D01*
X80104695Y-100536773D01*
X80127445Y-100494211D01*
X80141455Y-100448028D01*
X80146185Y-100400000D01*
X80146185Y-99400000D01*
X80141455Y-99351972D01*
X80127445Y-99305789D01*
X80104695Y-99263227D01*
X80074079Y-99225921D01*
X80036773Y-99195305D01*
X79994211Y-99172555D01*
X79952824Y-99160000D01*
X81961826Y-99160000D01*
X81917824Y-99183520D01*
G37*
X81917824Y-99183520D02*
X81872904Y-99220384D01*
X81863665Y-99231642D01*
X81661492Y-99433815D01*
X81417500Y-99433815D01*
X81340696Y-99441380D01*
X81266843Y-99463782D01*
X81198780Y-99500163D01*
X81139123Y-99549123D01*
X81090163Y-99608780D01*
X81053782Y-99676843D01*
X81031380Y-99750696D01*
X81023815Y-99827500D01*
X81023815Y-100172500D01*
X81031380Y-100249304D01*
X81053782Y-100323157D01*
X81090163Y-100391220D01*
X81139123Y-100450877D01*
X81198780Y-100499837D01*
X81266843Y-100536218D01*
X81340696Y-100558620D01*
X81417500Y-100566185D01*
X81712500Y-100566185D01*
X81789304Y-100558620D01*
X81863157Y-100536218D01*
X81931220Y-100499837D01*
X81990877Y-100450877D01*
X82039837Y-100391220D01*
X82050000Y-100372207D01*
X82060163Y-100391220D01*
X82109123Y-100450877D01*
X82168780Y-100499837D01*
X82236843Y-100536218D01*
X82310696Y-100558620D01*
X82361424Y-100563617D01*
X82566165Y-100768358D01*
X82575404Y-100779616D01*
X82607297Y-100805789D01*
X82620324Y-100816480D01*
X82671572Y-100843873D01*
X82727180Y-100860741D01*
X82785010Y-100866437D01*
X82799498Y-100865010D01*
X84460188Y-100865010D01*
X84780001Y-101194600D01*
X84780000Y-102178529D01*
X82578530Y-104380000D01*
X82139488Y-104380000D01*
X82125000Y-104378573D01*
X82110512Y-104380000D01*
X82067170Y-104384269D01*
X82011562Y-104401137D01*
X81960314Y-104428530D01*
X81915394Y-104465394D01*
X81906155Y-104476652D01*
X81820000Y-104562807D01*
X81820000Y-102872192D01*
X82037421Y-102654771D01*
X82063709Y-102660000D01*
X82156291Y-102660000D01*
X82247094Y-102641938D01*
X82332628Y-102606508D01*
X82409607Y-102555073D01*
X82475073Y-102489607D01*
X82526508Y-102412628D01*
X82561938Y-102327094D01*
X82580000Y-102236291D01*
X82580000Y-102143709D01*
X82561938Y-102052906D01*
X82526508Y-101967372D01*
X82475073Y-101890393D01*
X82409607Y-101824927D01*
X82332628Y-101773492D01*
X82247094Y-101738062D01*
X82156291Y-101720000D01*
X82063709Y-101720000D01*
X82041592Y-101724399D01*
X81883849Y-101566657D01*
X81874606Y-101555394D01*
X81829686Y-101518530D01*
X81778438Y-101491137D01*
X81722830Y-101474269D01*
X81679488Y-101470000D01*
X81665000Y-101468573D01*
X81650512Y-101470000D01*
X81492193Y-101470000D01*
X81216185Y-101193993D01*
X81216185Y-100917500D01*
X81208620Y-100840696D01*
X81186218Y-100766843D01*
X81149837Y-100698780D01*
X81100877Y-100639123D01*
X81041220Y-100590163D01*
X80973157Y-100553782D01*
X80899304Y-100531380D01*
X80822500Y-100523815D01*
X80477500Y-100523815D01*
X80400696Y-100531380D01*
X80326843Y-100553782D01*
X80258780Y-100590163D01*
X80199123Y-100639123D01*
X80150163Y-100698780D01*
X80113782Y-100766843D01*
X80091380Y-100840696D01*
X80083815Y-100917500D01*
X80083815Y-101178993D01*
X79895000Y-101367808D01*
X79895000Y-100646185D01*
X79900000Y-100646185D01*
X79948028Y-100641455D01*
X79994211Y-100627445D01*
X80036773Y-100604695D01*
X80074079Y-100574079D01*
X80104695Y-100536773D01*
X80127445Y-100494211D01*
X80141455Y-100448028D01*
X80146185Y-100400000D01*
X80146185Y-99400000D01*
X80141455Y-99351972D01*
X80127445Y-99305789D01*
X80104695Y-99263227D01*
X80074079Y-99225921D01*
X80036773Y-99195305D01*
X79994211Y-99172555D01*
X79952824Y-99160000D01*
X81961826Y-99160000D01*
X81917824Y-99183520D01*
M02*
